103.240.161.109:6666
152.67.50.45:80
119.204.70.145:80
109.238.222.5:45313
94.185.74.229:8080
104.238.172.208:8080
89.33.192.205:5836
176.114.128.131:3128
118.174.232.106:50491
51.158.186.255:8811
51.158.111.229:8811
51.158.186.242:8811
51.158.111.229:8811
45.116.68.90:44291
41.190.95.20:56167
88.247.10.31:8080
51.158.111.229:8811
110.78.178.61:8080
49.255.181.40:8080
155.0.181.254:31359
156.67.117.66:8080
193.117.138.126:31859
202.77.120.38:57716
82.200.233.4:3128
128.199.151.21:8080
82.200.233.4:3128
15.165.85.203:3128
1.20.101.221:55707
45.236.91.20:8880
114.7.195.198:8080
95.52.183.67:53281
51.158.186.255:8811
103.250.157.39:6666
15.165.112.193:3128
163.172.202.194:5836
104.45.188.43:3128
36.67.24.109:37641
46.255.98.189:41258
159.89.136.244:3128
200.165.78.66:80
91.135.242.10:8080
51.255.103.170:3129
36.89.189.77:51922
51.158.68.68:8811
145.239.121.218:3129
46.174.234.189:52233
35.178.105.212:8080
178.62.110.236:8080
186.233.98.173:23500
46.8.247.3:46285
94.244.28.246:31280
139.255.61.130:36511
163.172.201.210:92
125.27.251.160:48467
95.143.220.5:45939
36.89.194.113:38622
103.83.116.67:55443
69.162.97.90:5836
133.167.86.66:8080
103.119.147.234:3128
84.53.238.49:23500
116.212.147.178:58690
80.237.20.20:41824
177.37.240.52:8080
15.165.112.193:3128
95.79.55.196:53281
47.240.11.227:8080
84.244.46.171:8080
128.199.151.21:8080
119.15.95.158:8080
103.21.42.58:23500
102.164.199.76:47149
168.227.229.96:8888
82.207.41.135:55126
105.186.248.235:8080
91.187.113.205:53281
1.20.99.89:32963
94.73.239.124:55443
209.190.32.28:3128
195.138.83.218:53281
220.135.165.38:8080
178.72.74.40:35242
103.216.82.46:6666
36.92.68.177:8080
95.211.198.90:5836
125.27.251.206:50817
46.198.141.82:31870
148.251.97.111:8080
181.211.245.74:43872
125.27.251.87:58182
1.10.188.140:43327
138.94.37.29:8080
115.84.99.182:57148
81.217.151.218:56193
103.241.227.99:54073
36.37.201.187:39498
93.117.226.42:8080
115.77.191.180:53281
24.245.100.212:48678
103.78.213.226:57305
200.174.158.26:34112
50.233.228.147:8080
193.34.55.64:58099
1.10.189.156:34899
190.152.5.126:53040
122.248.45.35:53281
194.58.182.73:41258
79.137.254.51:33143
36.66.98.6:53281
95.179.187.168:8080
51.158.186.255:8811
1.20.99.44:32119
183.88.132.5:8080
157.245.121.119:8080
204.15.243.233:58159
222.124.173.146:53281
222.124.173.146:53281
139.180.204.233:3000
82.100.63.181:40962
82.100.63.181:40962
171.103.139.126:43115
171.103.139.126:43115
171.103.139.126:43115
171.103.139.126:43115
171.103.139.126:43115
171.103.139.126:43115
171.103.139.126:43115
171.103.139.126:43115
171.103.139.126:43115
194.35.115.4:8118
194.35.115.4:8118
171.103.139.126:43115
171.103.139.126:43115
93.88.216.51:46627
93.88.216.51:46627
114.7.195.198:8080
114.7.195.198:8080
114.7.195.198:8080
114.7.195.198:8080
103.194.242.78:47727
167.172.238.206:8080
167.172.238.206:8080
167.172.238.206:8080
167.172.238.206:8080
167.172.238.206:8080
