178.47.139.151:58792
51.158.172.165:8811
202.131.234.142:35563
34.83.68.150:8080
163.172.231.64:5836
95.84.128.25:33765
159.224.182.206:33067
68.183.48.96:8080
104.245.69.26:3128
217.151.232.221:53281
163.172.81.148:3128
202.169.38.198:30612
12.139.101.101:80
12.218.209.130:53281
123.200.26.22:48280
169.255.126.211:60129
69.162.107.77:5836
38.147.164.241:80
31.129.253.30:40223
5.62.157.86:8085
175.212.226.58:80
163.172.124.20:5836
199.167.184.124:80
134.122.122.60:8080
103.206.246.214:8080
103.205.128.77:43037
104.248.160.192:80
163.172.224.94:5836
178.47.139.151:58792
37.120.192.154:8080
190.5.118.42:8080
167.172.136.107:80
199.91.230.146:8080
163.172.227.18:5836
102.129.249.120:8080
89.20.135.204:80
110.164.91.50:51065
178.47.139.151:58792
159.89.189.98:3128
203.19.92.3:80
139.255.61.130:36511
195.225.48.97:58302
104.248.6.88:8080
95.67.65.18:53281
109.195.23.223:34031
103.31.227.27:8080
167.71.242.254:3128
167.172.227.154:8080
81.145.20.214:8080
210.120.84.243:808
159.224.182.206:33067
103.83.36.53:5836
51.158.123.35:8811
196.1.184.6:52963
119.82.252.29:34661
45.165.131.12:8080
197.210.187.46:45753
205.158.57.2:53281
24.172.82.94:53281
182.52.90.43:33326
47.52.255.67:80
206.189.30.218:3128
163.172.146.119:8811
104.255.168.202:5836
104.211.29.96:80
208.98.185.89:53630
125.26.99.223:32703
86.123.166.109:8080
150.129.171.123:6666
202.131.234.142:35563
163.172.146.119:8811
202.169.38.198:30612
36.37.177.186:8080
103.250.157.39:6666
209.97.150.167:8080
103.216.82.209:54806
50.115.173.33:5836
173.82.147.9:5836
185.34.22.225:37879
103.106.219.116:8080
118.174.196.112:36314
79.101.98.2:53281
182.16.171.65:30679
103.69.220.2:45155
68.15.31.118:48678
222.124.154.19:23500
69.162.107.77:5836
36.89.129.15:35270
212.83.184.210:5836
148.77.34.194:48521
163.172.189.32:8811
47.51.51.190:8080
175.139.179.65:39138
87.255.27.163:3128
54.175.186.38:8118
81.163.38.173:41258
161.35.97.206:80
110.76.128.53:42670
149.28.10.116:8080
105.29.64.217:80
46.235.53.26:3128
41.190.147.158:37010
5.62.159.240:8085
80.187.140.26:8080
185.130.105.119:65022
187.86.137.141:58918
47.91.105.34:80
103.240.161.109:6666
193.213.89.72:51024
45.235.87.94:53781
213.174.10.58:44051
2.57.77.177:8085
161.35.50.98:3128
179.124.242.34:41886
96.9.77.71:8080
185.25.136.160:8080
181.48.47.26:53281
80.187.140.26:8080
5.62.157.34:8085
124.156.98.172:80
5.62.157.179:8085
45.235.87.94:53781
128.0.179.234:41258
203.173.92.254:53080
103.253.113.54:8080
104.238.156.32:8080
104.45.188.43:3128
192.140.91.133:50701
182.53.206.44:45900
5.62.159.240:8085
202.79.16.129:60122
104.255.169.35:5836
103.57.36.161:8080
91.205.131.150:40694
51.158.180.150:8811
163.172.124.72:5836
79.101.98.2:53281
27.50.18.42:23500
125.26.99.223:32703
173.82.55.155:5836
3.8.134.151:80
161.199.130.1:8080
3.211.17.212:80
68.15.31.118:48678
110.76.128.53:42670
167.71.120.182:3128
193.200.151.69:48241
217.112.83.235:3128
159.65.171.69:80
5.62.159.100:8085
134.90.229.118:52972
51.158.98.121:8811
130.88.91.74:3128
109.172.57.250:23500
69.162.111.163:5836
86.123.166.109:8080
185.34.22.225:37879
41.190.147.158:37010
103.227.147.142:37581
175.100.16.20:37725
118.172.201.80:46677
123.200.26.22:48280
216.158.89.114:8088
202.79.16.129:60122
185.44.231.2:34244
155.0.181.254:31359
105.29.64.217:80
51.91.254.196:31282
69.162.92.148:5836
125.26.99.185:56119
104.154.143.77:3128
105.213.69.42:8080
185.128.37.4:8080
95.67.65.18:53281
213.120.213.242:8081
181.118.167.104:80
170.247.152.163:60571
104.45.188.43:3128
51.158.123.250:8811
173.82.177.213:5836
51.158.180.150:8811
167.71.177.222:8080
159.224.182.206:33067
198.98.54.241:8080
96.9.77.71:8080
103.216.82.153:6666
163.172.146.119:8811
148.77.34.194:48521
190.103.178.15:8080
5.62.157.86:8085
163.172.146.119:8811
5.62.157.161:8085
202.179.7.158:23500
63.220.1.43:80
173.82.177.213:5836
31.192.153.50:53281
36.67.66.202:41259
5.62.159.54:8085
163.172.136.226:8811
5.62.157.15:8085
159.65.171.69:80
185.128.37.4:8080
167.71.242.254:3128
94.141.244.39:34166
47.91.105.34:80
185.128.37.4:8080
103.79.35.200:39049
125.26.99.185:56119
104.238.156.32:8080
50.197.38.230:60724
157.245.62.184:3000
88.79.82.103:8080
217.151.232.221:53281
199.188.92.99:8000
144.202.87.27:8080
182.53.206.44:45900
163.172.231.3:5836
185.130.105.119:65022
2.57.77.177:8085
69.162.92.147:5836
163.172.114.81:5836
88.79.82.103:8080
34.94.93.33:8080
5.62.159.240:8085
209.190.32.28:3128
213.174.10.58:44051
185.134.23.198:80
92.51.149.81:3128
82.200.233.4:3128
163.172.202.234:5836
170.247.152.163:60571
110.164.91.50:51065
138.94.37.29:8080
45.67.219.194:8080
50.115.173.33:5836
89.23.198.13:8080
88.79.82.103:8080
89.20.135.204:80
104.45.188.43:3128
37.120.192.154:8080
169.45.160.130:1080
173.82.55.156:5836
180.178.102.174:55443
217.151.232.221:53281
52.41.94.5:80
103.83.116.106:55443
182.52.90.43:33326
163.172.60.116:8118
82.200.233.4:3128
110.76.128.53:42670
91.205.131.150:40694
161.199.130.1:8080
45.63.51.89:81
47.88.7.18:8088
69.162.123.109:5836
213.109.6.85:47972
104.154.143.77:3128
5.62.159.186:8085
222.122.60.175:44444
175.106.17.62:45864
79.101.98.2:53281
36.89.129.15:35270
212.109.196.159:8118
12.139.101.98:80
41.217.217.60:58734
118.172.201.80:46677
118.174.196.112:36314
103.28.149.253:8080
5.23.102.194:52803
34.83.68.150:8080
163.172.224.91:5836
163.172.189.32:8811
173.212.202.65:80
173.192.128.238:25
212.126.107.2:31475
37.120.192.154:8080
69.162.123.106:5836
137.220.33.70:8080
47.51.51.190:8080
185.130.105.119:65022
103.227.147.142:37581
163.172.224.93:5836
5.62.159.139:8085
104.236.54.196:8080
169.57.157.146:8123
197.210.187.46:45753
51.158.180.179:8811
5.56.133.225:34567
69.162.123.106:5836
5.62.157.86:8085
88.198.24.108:8080
35.167.52.229:80
175.212.226.58:80
170.81.35.26:36681
51.158.20.64:5836
103.206.246.214:8080
173.82.177.227:5836
79.101.98.2:53281
175.212.226.58:80
103.59.190.2:61209
103.253.113.54:8080
181.48.47.26:53281
95.84.128.25:33765
89.251.70.61:38408
38.21.34.224:8080
216.158.89.114:8088
150.129.171.123:6666
163.172.189.32:8811
96.9.69.164:53281
167.71.177.222:8080
45.63.19.95:8080
95.67.65.18:53281
185.130.105.105:65022
181.118.167.104:80
141.105.89.85:8080
222.124.154.19:23500
159.89.189.98:3128
41.217.217.60:58734
180.178.102.174:55443
36.89.182.153:36152
213.174.10.58:44051
200.52.141.162:53281
175.139.179.65:39138
92.51.149.81:3128
31.192.153.50:53281
3.8.134.151:80
5.62.157.124:8085
198.211.109.14:80
104.45.188.43:3128
119.82.252.29:34661
47.244.126.160:8081
5.62.159.128:8085
65.182.5.212:8080
213.174.10.58:44051
103.236.114.38:49638
45.55.53.228:44578
12.139.101.100:80
87.255.27.163:3128
38.90.33.62:80
31.192.153.50:53281
89.36.195.238:39131
119.82.252.29:34661
149.28.227.11:8080
212.129.63.157:5836
167.172.227.154:8080
159.203.82.173:3128
103.102.139.186:39184
201.204.46.10:39371
163.172.136.226:8811
166.249.185.133:41942
177.99.206.82:8080
115.124.73.130:43520
170.81.35.26:36681
1.20.101.62:39928
103.106.28.78:30909
148.77.34.195:48521
167.71.89.170:8080
169.255.126.211:60129
125.26.99.185:56119
159.65.171.69:80
104.255.169.34:5836
129.205.173.242:32457
103.27.77.200:31282
50.235.149.74:8080
163.172.198.72:5836
146.148.59.22:80
50.201.51.216:8080
158.46.127.222:52574
66.23.233.90:3128
202.137.5.1:3888
103.83.116.106:55443
202.79.16.129:60122
81.144.138.35:3128
185.34.22.225:37879
5.56.133.117:7080
81.95.131.10:44292
185.134.23.198:80
148.77.34.195:48521
194.5.206.231:8080
36.89.194.113:38622
202.137.5.1:3888
117.58.241.164:52636
104.45.188.43:3128
98.190.250.150:48678
167.172.136.107:80
208.98.186.80:53630
203.173.92.254:53080
134.209.38.177:3128
36.67.66.202:41259
41.217.217.60:58734
163.172.189.32:8811
199.167.184.124:80
103.111.20.139:44462
198.98.50.164:8080
5.56.133.117:7080
104.154.143.77:3128
185.134.23.196:80
5.62.159.80:8085
175.100.16.20:37725
78.108.66.26:3128
23.31.218.226:80
5.62.157.164:8085
118.172.201.80:46677
195.9.61.22:56099
157.245.174.129:3128
34.94.93.33:8080
94.244.28.246:31280
45.165.131.12:8080
103.105.49.53:80
206.81.1.249:3128
185.189.102.153:44981
5.23.102.194:52803
87.255.27.163:3128
36.89.194.113:38622
192.140.91.133:50701
69.162.123.109:5836
163.172.146.119:8811
5.252.177.213:3128
51.158.180.150:8811
118.69.140.108:53281
27.50.18.42:23500
35.167.52.229:80
95.84.128.25:33765
47.88.7.18:8088
34.87.88.180:80
1.20.103.196:42792
12.139.101.102:80
163.172.231.3:5836
109.172.57.250:23500
1.20.100.227:57396
5.62.157.179:8085
212.109.196.159:8118
109.75.140.158:59916
163.172.28.22:80
203.153.20.64:53281
194.183.168.129:31385
5.56.133.117:7080
79.137.123.252:3139
103.206.246.214:8080
178.134.208.126:50297
12.139.101.98:80
103.106.219.116:8080
36.89.182.153:36152
176.28.75.230:54657
197.234.35.82:53281
202.142.153.181:32296
109.172.57.250:23500
171.224.190.165:8080
167.71.242.254:3128
217.151.232.221:53281
77.238.79.111:8080
192.117.146.110:80
65.182.5.212:8080
209.97.150.167:8080
131.148.11.146:80
212.109.196.159:8118
12.139.101.101:80
103.216.82.209:54806
113.53.83.212:44664
161.199.130.1:8080
80.65.28.57:30962
51.158.180.150:8811
103.83.116.106:55443
34.106.29.57:80
162.252.57.246:5836
213.120.213.242:8081
185.44.231.2:34244
190.5.118.42:8080
192.200.200.87:3128
54.82.228.139:80
104.255.168.205:5836
103.206.246.214:8080
71.183.100.76:42413
162.248.247.153:32592
191.96.42.80:3128
182.52.90.43:33326
12.139.101.102:80
82.135.148.201:8081
182.52.90.43:33326
202.169.38.198:30612
196.2.15.68:8080
23.137.128.122:41549
149.248.35.72:8080
125.26.99.223:32703
3.215.213.177:80
36.37.177.186:8080
109.75.140.158:59916
194.183.168.129:31385
194.183.168.129:31385
92.247.93.142:60762
36.89.129.15:35270
31.192.153.50:53281
36.89.129.15:35270
36.89.182.153:36152
104.154.143.77:3128
103.27.77.200:31282
173.82.133.141:5836
213.174.10.58:44051
212.129.63.157:5836
91.187.113.205:53281
146.148.59.22:80
187.86.137.141:58918
185.189.102.153:44981
36.89.182.153:36152
161.35.50.98:3128
98.190.250.150:48678
47.244.126.160:8081
137.220.51.128:8080
91.211.172.104:55218
69.162.107.77:5836
192.117.146.110:80
63.134.172.12:80
192.200.200.87:3128
185.130.105.105:65022
52.170.3.71:80
163.172.60.116:8118
45.63.97.27:31801
36.89.189.77:51922
177.99.206.82:8080
125.26.99.185:56119
50.233.228.147:8080
108.74.113.180:80
212.24.148.234:60759
5.62.157.86:8085
167.172.238.206:8080
178.47.139.151:58792
40.121.198.48:80
68.15.31.118:48678
193.213.89.72:51024
163.172.229.174:3128
202.179.7.158:23500
51.158.180.179:8811
79.101.98.2:53281
157.245.62.184:3000
110.164.91.50:51065
177.154.224.206:44488
36.37.177.186:8080
46.10.199.90:34607
190.5.118.42:8080
197.210.187.46:45753
167.172.191.249:39193
103.69.220.2:45155
65.152.119.226:39408
64.225.63.80:3128
103.102.139.186:39184
5.62.157.44:8085
104.45.188.43:3128
199.195.248.24:8080
137.220.33.70:8080
103.119.145.138:8080
103.59.190.2:61209
181.40.122.102:8080
208.98.186.80:53630
163.172.81.148:3128
52.41.94.5:80
198.204.253.114:3128
118.69.219.185:55184
91.142.174.224:34009
216.158.89.114:8088
1.20.102.228:61606
169.57.157.146:8123
168.232.165.87:8080
107.178.4.215:35330
103.83.116.106:55443
79.101.98.2:53281
2.57.76.211:8085
5.62.157.39:8085
36.89.189.77:51922
27.50.18.42:23500
180.178.102.174:55443
5.62.157.15:8085
47.52.255.67:80
163.172.11.229:5836
140.144.90.53:80
69.162.92.149:5836
160.119.126.54:8080
163.172.224.93:5836
89.23.198.13:8080
166.249.185.133:41942
5.62.159.222:8085
104.255.169.35:5836
130.88.91.74:3128
51.15.157.176:5836
36.89.194.113:38622
150.109.32.166:80
98.190.250.150:48678
5.62.157.91:8085
159.203.82.173:3128
103.59.190.2:61209
5.62.159.55:8085
189.127.106.16:53897
134.209.38.177:3128
104.255.169.35:5836
69.162.92.147:5836
47.244.126.160:8081
3.8.134.151:80
41.217.217.60:58734
52.44.221.195:8080
86.123.166.109:8080
216.158.89.114:8088
118.69.140.108:53281
3.21.117.16:80
36.89.129.15:35270
103.69.220.2:45155
5.62.157.176:8085
74.15.191.160:41564
46.235.53.26:3128
134.249.167.184:53281
71.138.16.17:30421
182.52.90.43:33326
138.68.240.218:8080
38.126.254.114:45517
203.173.92.254:53080
85.237.56.101:8080
104.211.29.96:80
107.150.22.210:8080
51.158.180.179:8811
38.126.254.114:45517
41.190.147.158:37010
5.62.157.15:8085
104.45.188.43:3128
82.135.148.201:8081
5.62.159.28:8085
37.120.192.154:8080
47.52.231.140:8080
125.26.99.223:32703
81.145.20.214:8080
185.134.23.196:80
34.94.93.33:8080
185.44.231.2:34244
185.128.37.4:8080
133.167.86.66:8080
212.129.63.157:5836
109.172.57.250:23500
5.59.141.152:61981
206.189.82.151:8080
205.185.127.8:8080
68.183.48.96:8080
190.103.178.15:8080
52.41.94.5:80
15.165.85.203:3128
202.131.234.142:35563
192.200.200.87:3128
88.79.82.103:8080
182.52.90.43:33326
150.129.171.123:6666
163.172.60.116:8118
197.210.187.46:45753
203.19.92.3:80
159.89.189.98:3128
77.238.79.111:8080
104.245.228.65:8080
212.129.51.34:5836
5.252.177.213:3128
31.179.224.42:38263
163.172.226.89:5836
5.62.159.55:8085
68.183.48.96:8080
23.137.128.122:41549
104.154.143.77:3128
163.172.224.79:5836
206.189.30.218:3128
146.148.59.22:80
203.153.20.64:53281
162.243.108.129:3128
103.235.199.46:31611
150.109.32.166:80
163.172.146.119:8811
35.167.52.229:80
203.188.246.67:8080
41.190.147.158:37010
41.169.165.98:39614
203.188.246.67:8080
162.249.248.218:53281
89.20.135.204:80
36.89.182.153:36152
103.83.116.106:55443
64.227.126.28:3128
155.0.181.254:31359
128.0.179.234:41258
91.187.113.205:53281
103.250.157.39:6666
213.58.202.70:54214
129.205.173.242:32457
12.139.101.102:80
177.99.206.82:8080
64.225.63.80:3128
169.45.160.130:1080
162.249.248.218:53281
41.217.217.60:58734
27.50.18.42:23500
103.111.20.139:44462
27.50.18.42:23500
163.172.224.60:5836
163.172.224.76:5836
162.252.57.246:5836
134.209.38.177:3128
209.190.32.28:3128
195.69.221.198:33972
104.211.29.96:80
134.35.171.153:8080
197.210.217.66:56625
5.62.157.86:8085
103.236.114.38:49638
173.82.17.190:5836
198.204.253.114:3128
173.82.74.60:5836
78.108.66.26:3128
163.172.224.91:5836
167.172.191.249:39193
47.91.217.100:80
163.172.71.110:8123
45.63.97.27:31801
118.172.201.80:46677
82.200.233.4:3128
115.124.73.130:43520
107.152.32.206:8080
103.253.113.54:8080
36.89.194.113:38622
5.62.159.235:8085
163.172.202.103:5836
159.89.189.98:3128
18.224.39.7:3128
36.89.129.15:35270
118.172.201.80:46677
169.45.160.130:1080
103.59.190.2:61209
213.109.6.85:47972
108.61.89.23:8080
163.172.231.26:5836
94.153.169.22:59177
161.35.46.103:80
179.124.242.34:41886
178.134.208.126:50297
185.134.23.196:80
169.255.126.211:60129
110.76.128.53:42670
216.198.188.26:51068
177.154.224.206:44488
47.91.217.100:80
52.41.94.5:80
5.62.157.158:8085
69.162.123.106:5836
5.62.159.112:8085
167.172.30.250:3128
146.148.59.22:80
37.120.192.154:8080
69.162.111.165:5836
1.20.101.62:39928
50.249.79.18:8080
103.216.82.209:54806
193.213.89.72:51024
69.162.107.78:5836
158.46.127.222:52574
202.142.153.181:32296
72.182.145.208:80
205.185.127.8:8080
163.172.231.64:5836
161.35.46.103:80
36.37.177.186:8080
104.248.160.192:80
199.188.92.99:8000
163.172.114.81:5836
202.169.38.198:30612
96.9.69.164:53281
5.62.157.39:8085
185.130.105.119:65022
203.153.20.64:53281
212.129.34.74:5836
185.128.37.4:8080
103.216.82.209:54806
103.253.113.54:8080
139.255.61.130:36511
87.255.27.163:3128
105.27.238.160:80
203.153.20.64:53281
107.178.4.215:35330
182.52.90.43:33326
31.179.224.42:38263
130.88.91.74:3128
163.172.202.153:5836
12.139.101.102:80
103.69.220.2:45155
5.62.159.222:8085
37.120.192.154:8080
201.204.46.10:39371
222.124.154.19:23500
138.68.60.8:3128
177.99.206.82:8080
103.31.227.27:8080
206.81.1.249:3128
88.79.82.103:8080
198.204.253.114:3128
64.225.63.80:3128
47.91.105.34:80
175.106.17.62:45864
166.249.185.133:41942
69.197.191.214:31282
181.40.122.102:8080
173.82.177.213:5836
78.108.66.26:3128
109.172.57.250:23500
222.124.154.19:23500
5.23.102.194:52803
173.82.17.190:5836
195.225.48.97:58302
105.29.64.217:80
37.120.192.154:8080
103.27.77.200:31282
15.165.85.203:3128
36.89.129.15:35270
125.25.165.97:39021
31.192.153.50:53281
51.158.180.150:8811
119.82.253.123:55281
68.15.31.118:48678
175.106.17.62:45864
191.96.42.80:3128
68.183.48.96:8080
23.137.128.122:41549
186.159.3.41:30334
118.69.140.108:53281
62.205.169.74:53281
69.162.92.148:5836
112.78.143.26:47718
115.124.73.130:43520
194.183.168.129:31385
5.62.157.184:8085
104.255.168.204:5836
92.247.93.142:60762
209.190.32.28:3128
173.82.177.227:5836
79.101.98.2:53281
95.84.128.25:33765
151.252.108.65:38069
45.67.219.194:8080
128.0.179.234:41258
52.170.3.71:80
177.99.206.82:8080
91.211.172.104:55218
36.89.129.15:35270
91.187.113.205:53281
45.67.219.194:8080
91.187.113.205:53281
196.1.184.6:52963
162.252.57.246:5836
70.169.145.164:48678
64.227.126.28:3128
212.129.63.157:5836
50.201.51.216:8080
3.21.117.16:80
213.58.202.70:54214
203.202.254.206:51269
78.108.66.26:3128
50.236.148.246:39970
222.124.154.19:23500
125.26.99.185:56119
180.211.186.90:33723
134.35.171.153:8080
185.158.127.9:53281
182.16.171.65:30679
18.224.39.7:3128
103.250.157.39:6666
110.76.128.53:42670
181.48.47.26:53281
71.138.16.17:30421
34.87.96.183:80
172.254.124.231:3128
80.187.140.26:8080
5.62.159.240:8085
103.69.220.2:45155
74.15.191.160:41564
47.88.16.118:3128
103.59.190.2:61209
177.99.206.82:8080
197.234.35.82:53281
213.174.10.58:44051
68.183.48.96:8080
34.83.68.150:8080
190.5.118.42:8080
87.255.27.163:3128
12.139.101.102:80
51.91.254.196:31282
51.15.157.176:5836
131.148.11.146:80
5.62.159.128:8085
63.249.67.70:53281
12.139.101.98:80
108.74.113.180:80
185.25.136.160:8080
91.187.113.205:53281
203.173.92.254:53080
200.52.141.162:53281
34.94.93.33:8080
103.235.199.46:31611
50.249.79.18:8080
12.139.101.101:80
212.129.51.34:5836
94.153.169.22:59177
213.174.10.58:44051
181.48.47.26:53281
125.26.6.61:60121
200.52.141.162:53281
103.206.246.214:8080
203.188.246.67:8080
103.250.157.39:6666
5.62.157.86:8085
222.124.154.19:23500
202.131.234.142:35563
94.141.244.39:34166
12.139.101.101:80
82.135.148.201:8081
54.82.228.139:80
213.98.67.40:41005
159.224.182.206:33067
193.200.151.69:48241
213.109.6.85:47972
168.0.86.146:8080
169.57.157.146:8123
80.187.140.26:8080
196.2.15.68:8080
38.147.164.241:80
163.172.28.22:80
159.203.82.173:3128
105.213.69.42:8080
94.153.169.22:59177
41.190.147.158:37010
109.172.57.250:23500
78.108.66.26:3128
182.16.171.65:30679
104.255.168.202:5836
161.35.97.206:80
94.244.28.246:31280
110.164.91.50:51065
166.249.185.133:41942
5.59.141.152:61981
78.108.66.26:3128
70.169.145.164:48678
51.158.172.165:8811
70.165.64.33:48678
64.227.126.28:3128
119.82.252.29:34661
205.158.57.2:53281
79.137.123.252:3139
177.99.206.82:8080
206.81.1.47:8080
195.9.61.22:56099
103.206.246.214:8080
212.126.107.2:31475
182.52.90.43:33326
71.168.222.78:3128
91.211.172.104:55218
170.247.152.163:60571
103.216.82.209:54806
12.139.101.102:80
185.128.37.4:8080
27.50.18.42:23500
163.172.189.32:8811
12.139.101.97:80
197.234.35.82:53281
115.124.73.130:43520
63.249.67.70:53281
199.188.92.69:8000
173.82.55.154:5836
206.189.82.151:8080
178.33.251.230:3129
93.87.17.1:53281
213.120.213.242:8081
159.138.3.119:443
163.172.189.32:8811
45.67.219.194:8080
177.154.224.206:44488
134.35.171.153:8080
190.103.178.15:8080
80.187.140.26:8080
222.124.154.19:23500
104.245.69.26:3128
173.82.74.60:5836
194.183.168.129:31385
81.145.20.214:8080
194.5.206.231:8080
173.82.147.9:5836
69.162.84.219:5836
200.89.159.153:8080
47.75.71.222:3000
12.139.101.97:80
173.82.133.141:5836
38.147.164.241:80
194.183.168.129:31385
180.178.102.174:55443
222.124.154.19:23500
163.172.231.26:5836
5.62.159.240:8085
213.174.10.58:44051
5.62.159.139:8085
49.12.35.192:8080
41.190.147.158:37010
103.206.246.214:8080
69.162.92.147:5836
85.143.254.20:8080
161.199.130.1:8080
109.172.57.250:23500
113.53.91.12:53281
95.84.128.25:33765
103.59.190.2:61209
109.172.57.250:23500
222.122.60.175:44444
193.213.89.72:51024
212.83.151.131:5836
31.179.224.42:38263
5.62.157.34:8085
166.249.185.133:41942
5.62.157.38:8085
118.172.201.80:46677
46.235.53.26:3128
12.139.101.100:80
171.224.190.165:8080
69.162.123.109:5836
38.126.254.114:45517
67.219.116.234:8080
198.98.50.164:8080
103.102.139.186:39184
173.82.17.190:5836
173.192.128.238:25
103.28.149.253:8080
203.29.27.4:8080
203.173.92.254:53080
78.130.145.167:39825
5.62.159.54:8085
155.138.159.197:8080
163.172.229.174:3128
173.82.17.190:5836
89.251.70.61:38408
103.206.246.214:8080
69.162.84.221:5836
159.65.171.69:80
167.172.217.218:8080
189.127.106.16:53897
67.219.116.234:8080
1.20.101.62:39928
13.229.131.242:3128
206.81.1.47:8080
199.167.184.124:80
104.45.188.43:3128
81.95.131.10:44292
103.111.20.139:44462
193.213.89.72:51024
91.187.113.205:53281
51.91.254.196:31282
180.178.102.174:55443
103.57.36.161:8080
177.154.224.206:44488
186.159.3.41:30334
103.83.116.226:55443
173.82.55.156:5836
96.9.77.71:8080
12.5.154.153:80
69.162.111.165:5836
37.120.192.154:8080
104.255.169.34:5836
203.188.246.67:8080
66.23.233.90:3128
212.129.63.157:5836
89.36.195.238:39131
1.20.100.227:57396
190.103.178.15:8080
178.33.251.230:3129
212.24.148.234:60759
34.94.93.33:8080
159.65.171.69:80
65.184.156.234:33247
194.5.206.231:8080
185.158.127.9:53281
167.172.191.249:39193
105.29.64.217:80
192.119.203.170:48678
43.248.24.158:51166
125.26.99.185:56119
5.62.157.176:8085
159.192.97.181:23500
104.244.75.26:8080
163.172.224.66:5836
1.20.102.228:61606
31.129.253.30:40223
5.62.159.80:8085
12.139.101.98:80
185.158.127.9:53281
103.83.116.226:55443
190.103.178.15:8080
169.57.157.146:8123
117.58.241.164:52636
107.178.4.215:35330
49.248.154.232:80
198.98.54.241:8080
89.251.70.61:38408
103.27.77.200:31282
2.57.77.177:8085
163.172.201.210:92
65.182.5.212:8080
81.163.38.173:41258
202.131.234.142:35563
212.24.148.234:60759
41.217.217.60:58734
5.62.157.181:8085
180.178.102.174:55443
103.216.82.209:54806
103.57.36.161:8080
213.98.67.40:41005
89.251.70.61:38408
203.188.246.67:8080
103.250.157.39:6666
169.57.157.146:8123
103.253.113.54:8080
109.75.140.158:59916
185.128.37.4:8080
69.162.107.78:5836
159.192.97.181:23500
2.57.76.211:8085
163.172.146.119:8811
91.187.113.205:53281
79.101.98.2:53281
103.111.29.250:8080
197.210.187.46:45753
117.197.99.118:80
196.2.15.68:8080
69.197.191.214:31282
96.9.69.164:53281
89.23.198.13:8080
78.46.81.7:1080
170.247.152.163:60571
134.209.38.177:3128
163.172.29.76:5836
69.197.191.214:31282
186.159.3.41:30334
51.158.180.179:8811
96.9.69.164:53281
3.215.213.177:80
51.15.157.176:5836
134.249.167.184:53281
202.169.38.198:30612
47.88.7.18:8088
216.158.89.114:8088
107.150.22.210:8080
167.71.177.222:8080
103.235.199.46:31611
125.25.165.97:39021
125.26.6.61:60121
87.255.27.163:3128
163.172.202.234:5836
175.212.226.58:80
70.169.145.164:48678
125.25.165.97:39021
14.162.145.116:30762
150.109.32.166:80
118.172.201.80:46677
216.198.188.26:51068
149.248.35.72:8080
12.172.76.90:8080
212.83.151.131:5836
5.23.102.194:52803
31.179.224.42:38263
5.62.157.91:8085
175.139.179.65:39138
103.79.35.200:39049
103.216.82.209:54806
5.62.157.176:8085
104.45.188.43:3128
196.2.15.68:8080
34.87.96.183:80
51.158.186.242:8811
171.224.190.165:8080
103.105.49.53:80
79.137.123.252:3139
125.26.6.61:60121
47.89.180.161:3128
202.169.38.198:30612
103.206.246.214:8080
78.108.66.26:3128
103.236.114.38:49638
197.210.217.66:56625
175.106.17.62:45864
222.122.60.175:44444
103.111.29.250:8080
197.210.187.46:45753
50.233.228.147:8080
109.172.57.250:23500
177.154.224.206:44488
162.243.108.129:3128
5.252.177.213:3128
217.151.232.221:53281
69.162.82.155:5836
196.1.184.6:52963
104.255.168.203:5836
167.172.217.218:8080
159.224.182.206:33067
173.82.133.141:5836
89.251.70.61:38408
103.227.147.142:37581
34.94.93.33:8080
158.46.127.222:52574
200.89.159.153:8080
163.172.231.64:5836
78.46.81.7:1080
62.118.131.240:3128
190.103.178.15:8080
41.190.147.158:37010
134.90.229.118:52972
1.20.101.62:39928
78.130.145.167:39825
163.172.29.76:5836
104.248.6.88:8080
46.235.53.26:3128
104.154.143.77:3128
181.48.47.26:53281
103.79.35.200:39049
182.53.206.44:45900
200.89.159.153:8080
118.69.50.154:80
50.249.79.18:8080
91.211.172.104:55218
47.89.193.30:8118
68.15.31.118:48678
169.255.126.211:60129
182.52.90.43:33326
95.178.216.69:8080
85.237.56.101:8080
88.198.24.108:8080
5.62.157.124:8085
54.175.186.38:8118
79.101.98.2:53281
45.67.219.194:8080
155.138.159.121:8080
109.172.57.250:23500
43.248.24.158:51166
103.79.35.200:39049
5.62.159.134:8085
95.84.128.25:33765
190.5.118.42:8080
194.183.168.129:31385
96.9.69.164:53281
51.158.107.202:8811
200.52.141.162:53281
51.158.180.150:8811
36.89.129.15:35270
51.91.254.196:31282
87.255.27.163:3128
163.172.231.26:5836
119.82.253.123:55281
201.204.46.10:39371
63.82.52.254:8080
163.172.231.56:5836
104.255.168.202:5836
209.97.150.167:8080
157.230.255.230:8118
168.232.165.87:8080
203.153.20.64:53281
103.102.139.186:39184
5.62.159.28:8085
181.211.38.62:47911
163.172.189.32:8811
203.153.20.64:53281
125.25.165.97:39021
36.67.66.202:41259
104.244.75.218:8080
2.57.76.126:8085
179.124.242.34:41886
222.124.154.19:23500
212.129.51.34:5836
192.117.146.110:80
1.20.102.228:61606
150.129.171.123:6666
36.67.66.202:41259
103.194.248.166:34448
199.188.92.69:8000
107.178.4.215:35330
133.167.86.66:8080
47.88.16.118:3128
50.249.79.18:8080
123.200.26.22:48280
185.130.105.105:65022
185.128.37.4:8080
45.63.97.27:31801
206.189.82.151:8080
95.67.65.18:53281
1.20.100.227:57396
36.89.129.15:35270
198.211.109.14:80
91.211.172.104:55218
185.128.37.4:8080
192.200.200.87:3128
85.237.56.101:8080
31.179.224.42:38263
36.67.66.202:41259
163.172.231.56:5836
95.139.194.110:80
95.67.65.18:53281
213.174.10.58:44051
125.26.99.223:32703
117.58.241.164:52636
5.62.159.54:8085
105.29.64.217:80
163.172.198.72:5836
91.142.174.224:34009
95.0.66.21:8080
107.152.32.206:8080
50.201.51.216:8080
51.158.123.250:8811
95.178.216.69:8080
50.233.228.147:8080
195.9.61.22:56099
47.89.193.30:8118
69.162.92.149:5836
170.81.35.26:36681
94.153.169.22:59177
51.158.98.121:8811
5.62.157.179:8085
180.211.186.90:33723
115.124.73.130:43520
163.172.180.18:8811
5.62.159.54:8085
212.83.184.210:5836
105.213.69.42:8080
46.10.199.90:34607
107.152.32.206:8080
72.182.145.208:80
212.126.107.2:31475
103.235.199.46:31611
18.224.39.7:3128
63.220.1.43:80
77.238.79.111:8080
96.9.77.71:8080
103.83.116.226:55443
149.248.35.72:8080
192.140.91.133:50701
78.46.81.7:1080
163.172.189.32:8811
69.162.92.148:5836
1.20.102.228:61606
167.71.177.222:8080
36.89.129.15:35270
166.249.185.133:41942
67.219.116.234:8080
163.172.114.81:5836
213.109.6.85:47972
47.244.126.160:8081
185.158.127.9:53281
36.37.177.186:8080
155.138.159.121:8080
203.19.92.3:80
178.33.251.230:3129
71.138.16.17:30421
109.172.57.250:23500
155.138.159.121:8080
163.172.224.94:5836
197.234.35.82:53281
89.251.70.61:38408
118.172.201.80:46677
45.235.87.94:53781
173.192.128.238:25
104.45.188.43:3128
72.182.145.208:80
185.158.127.9:53281
134.122.122.60:8080
213.98.67.40:41005
52.41.94.5:80
68.183.48.96:8080
212.109.196.159:8118
118.172.201.80:46677
182.52.90.43:33326
94.244.28.246:31280
155.0.181.254:31359
51.158.107.202:8811
198.211.109.14:80
155.138.159.121:8080
85.143.254.20:8080
68.183.111.90:80
50.235.149.74:8080
1.20.100.227:57396
144.202.87.27:8080
52.170.3.71:80
12.139.101.102:80
86.123.166.109:8080
5.59.141.152:61981
12.172.76.90:8080
181.48.47.26:53281
45.55.53.228:44578
104.45.188.43:3128
202.179.7.158:23500
201.204.46.10:39371
212.129.63.157:5836
69.197.191.214:31282
46.235.53.26:3128
199.188.92.69:8000
137.220.51.128:8080
203.202.254.206:51269
69.162.84.219:5836
5.62.157.34:8085
82.200.233.4:3128
173.82.177.227:5836
149.28.10.116:8080
108.74.113.180:80
199.167.184.124:80
102.129.249.120:8080
12.139.101.102:80
34.209.137.148:80
63.134.172.12:80
2.57.76.211:8085
91.187.113.205:53281
5.62.157.15:8085
12.139.101.98:80
45.235.87.94:53781
45.55.53.228:44578
5.62.159.100:8085
185.134.23.198:80
5.62.157.176:8085
91.205.131.150:40694
95.84.128.25:33765
31.179.224.42:38263
31.192.153.50:53281
199.195.248.24:8080
36.89.182.153:36152
24.172.82.94:53281
69.162.123.106:5836
180.178.102.174:55443
162.252.57.246:5836
141.105.89.85:8080
198.50.152.64:23500
69.162.107.78:5836
2.57.76.230:8085
170.247.152.163:60571
163.172.124.72:5836
49.12.35.192:8080
41.217.217.60:58734
117.197.99.118:80
161.199.130.1:8080
2.57.77.232:8085
150.109.32.166:80
91.142.174.224:34009
89.23.198.13:8080
62.205.169.74:53281
5.62.157.34:8085
96.9.77.71:8080
155.138.159.121:8080
150.129.171.123:6666
51.158.98.121:8811
95.0.66.21:8080
23.137.128.122:41549
199.195.248.24:8080
200.52.141.162:53281
5.62.157.86:8085
125.25.165.97:39021
12.172.76.90:8080
155.138.159.197:8080
78.108.66.26:3128
208.98.185.89:53630
163.172.98.148:5836
167.172.30.250:3128
5.62.157.161:8085
185.130.105.119:65022
133.167.86.66:8080
202.169.38.198:30612
81.145.20.214:8080
95.84.128.25:33765
69.162.123.109:5836
149.28.10.116:8080
5.62.159.235:8085
91.142.174.224:34009
51.158.123.35:8811
45.67.219.194:8080
81.163.38.173:41258
1.20.100.227:57396
129.205.173.242:32457
103.106.28.78:30909
103.59.190.2:61209
110.76.128.53:42670
169.255.126.211:60129
79.101.98.2:53281
178.134.208.126:50297
12.5.154.153:80
104.255.169.35:5836
51.158.107.202:8811
161.199.130.1:8080
89.251.70.61:38408
103.57.70.248:52000
185.134.23.196:80
161.199.130.1:8080
203.153.20.64:53281
1.20.102.228:61606
213.98.67.40:41005
163.172.224.79:5836
50.233.228.147:8080
103.57.70.248:52000
103.111.20.139:44462
163.172.29.74:5836
213.174.10.58:44051
12.139.101.97:80
118.172.201.80:46677
51.158.20.64:5836
163.172.146.119:8811
108.74.113.180:80
193.188.254.67:53281
197.234.35.82:53281
118.69.140.108:53281
69.162.84.221:5836
125.25.165.97:39021
47.52.255.67:80
91.211.172.104:55218
203.207.52.206:8085
65.152.119.226:39408
201.204.46.10:39371
51.158.180.150:8811
168.232.165.87:8080
198.148.105.198:8080
182.52.90.43:33326
104.244.75.218:8080
195.9.61.22:56099
103.235.199.46:31611
35.167.52.229:80
103.206.246.214:8080
103.253.113.54:8080
34.209.137.148:80
161.35.50.98:3128
138.68.240.218:8080
186.159.3.41:30334
202.179.7.158:23500
180.250.153.129:53281
178.47.139.151:58792
13.229.131.242:3128
41.217.217.60:58734
161.35.50.98:3128
185.158.127.9:53281
212.129.63.157:5836
169.45.160.130:1080
217.112.83.235:3128
51.158.107.202:8811
95.178.216.69:8080
103.253.113.54:8080
125.26.6.61:60121
103.119.145.138:8080
5.62.159.134:8085
71.183.100.76:42413
197.234.35.82:53281
104.255.168.204:5836
68.183.111.90:80
109.195.23.223:34031
134.209.29.120:3128
216.198.188.26:51068
82.135.148.201:8081
103.106.219.116:8080
77.238.79.111:8080
169.255.126.211:60129
69.162.111.165:5836
34.87.96.183:80
36.37.177.186:8080
205.158.57.2:53281
63.220.1.43:80
115.124.73.130:43520
117.252.66.40:8080
173.82.55.156:5836
69.162.92.148:5836
5.23.102.194:52803
190.103.178.15:8080
103.205.128.77:43037
203.153.20.64:53281
47.91.105.34:80
103.58.74.2:8080
212.83.151.131:5836
104.255.168.205:5836
167.71.242.254:3128
103.69.220.2:45155
185.134.23.198:80
47.89.193.30:8118
175.139.179.65:39138
95.67.65.18:53281
163.172.180.18:8811
47.89.193.30:8118
203.172.185.122:47746
5.62.159.100:8085
63.134.172.12:80
206.189.82.151:8080
186.159.3.41:30334
95.67.65.18:53281
34.94.93.33:8080
163.172.29.76:5836
167.172.30.250:3128
105.29.64.217:80
47.91.105.34:80
78.46.81.7:1080
85.143.254.20:8080
185.130.105.119:65022
182.52.51.47:41146
107.150.22.210:8080
173.192.128.238:25
5.252.177.213:3128
81.144.138.35:3128
103.216.82.209:54806
182.53.206.44:45900
103.227.147.142:37581
103.27.77.200:31282
212.129.34.74:5836
182.52.90.43:33326
104.154.143.77:3128
103.111.20.139:44462
167.71.177.222:8080
125.25.165.97:39021
69.162.84.219:5836
179.124.242.34:41886
43.248.24.158:51166
190.103.178.15:8080
51.158.98.121:8811
125.26.99.185:56119
43.248.24.158:51166
41.190.147.158:37010
177.92.20.182:46212
41.217.217.60:58734
178.33.251.230:3129
125.26.99.223:32703
115.124.73.130:43520
202.169.38.198:30612
167.71.120.182:3128
104.211.29.96:80
104.244.75.26:8080
110.76.128.53:42670
125.25.165.97:39021
197.234.35.82:53281
18.132.18.81:80
50.236.148.246:39970
202.169.38.198:30612
104.45.188.43:3128
129.205.173.242:32457
51.158.172.165:8811
91.187.113.205:53281
50.197.38.230:60724
89.36.195.238:39131
104.211.29.96:80
181.118.167.104:80
199.188.92.69:8000
82.102.10.250:3128
94.141.244.39:34166
129.205.173.242:32457
163.172.189.32:8811
91.211.172.104:55218
5.56.133.225:34567
51.15.157.176:5836
5.62.157.39:8085
161.35.97.206:80
213.174.10.58:44051
5.62.157.195:8085
2.57.77.232:8085
5.62.157.52:8085
45.67.219.194:8080
166.249.185.133:41942
168.232.165.87:8080
5.62.159.47:8085
103.102.139.186:39184
108.74.113.180:80
27.50.18.42:23500
192.140.91.133:50701
5.62.159.134:8085
209.97.150.167:8080
5.62.157.34:8085
5.62.159.139:8085
212.129.63.157:5836
36.89.194.113:38622
162.252.57.246:5836
65.152.119.226:39408
192.119.203.170:48678
185.128.37.4:8080
50.115.173.33:5836
202.169.38.198:30612
173.212.202.65:80
180.178.102.174:55443
167.172.227.154:8080
178.33.251.230:3129
203.29.27.4:8080
169.45.160.130:1080
180.250.153.129:53281
177.99.206.82:8080
80.187.140.26:8080
159.65.171.69:80
185.134.23.197:80
103.206.246.214:8080
118.174.196.112:36314
212.24.148.234:60759
163.172.224.66:5836
40.121.198.48:80
78.108.66.26:3128
103.240.161.109:6666
201.204.46.10:39371
89.36.195.238:39131
47.244.126.160:8081
207.148.16.164:8080
3.8.134.151:80
209.250.229.235:8080
138.68.60.8:3128
159.89.189.98:3128
5.62.157.15:8085
168.0.86.146:8080
12.139.101.101:80
123.200.26.22:48280
213.58.202.70:54214
37.120.192.154:8080
213.174.10.58:44051
192.140.91.133:50701
34.106.29.57:80
3.8.134.151:80
162.243.108.129:3128
158.46.127.222:52574
162.248.247.153:32592
36.89.182.153:36152
163.172.124.20:5836
170.81.35.26:36681
103.106.219.116:8080
190.103.178.15:8080
104.45.188.43:3128
50.233.42.98:51696
163.172.224.60:5836
5.62.157.158:8085
178.33.251.230:3129
35.167.52.229:80
125.26.99.185:56119
47.89.180.161:3128
103.57.70.248:52000
5.59.141.152:61981
185.134.23.196:80
51.158.20.64:5836
69.162.92.148:5836
197.210.187.46:45753
87.255.27.163:3128
108.61.89.23:8080
103.240.161.109:6666
196.1.184.6:52963
82.200.233.4:3128
185.189.102.153:44981
80.65.28.57:30962
180.178.102.174:55443
185.44.231.2:34244
103.205.128.77:43037
104.236.47.73:8080
36.89.182.153:36152
91.187.113.205:53281
203.188.246.67:8080
118.69.140.108:53281
159.65.171.69:80
12.172.76.90:8080
144.202.87.27:8080
31.192.153.50:53281
212.126.107.2:31475
103.111.20.139:44462
107.150.22.210:8080
155.0.181.254:31359
103.83.36.53:5836
63.220.1.43:80
163.172.224.91:5836
3.21.117.16:80
96.9.69.164:53281
5.62.157.38:8085
206.189.30.218:3128
209.250.229.235:8080
173.82.133.141:5836
203.202.245.62:80
47.51.51.190:8080
103.111.29.250:8080
198.211.109.14:80
74.15.191.160:41564
107.150.22.210:8080
163.172.224.66:5836
125.25.165.97:39021
193.213.89.72:51024
186.159.3.41:30334
180.178.102.174:55443
15.165.85.203:3128
68.183.53.126:3128
206.81.1.249:3128
69.197.191.214:31282
49.12.35.192:8080
103.235.199.46:31611
185.34.22.225:37879
187.86.137.141:58918
194.183.168.129:31385
91.205.131.150:40694
46.10.199.90:34607
24.172.225.122:53281
133.167.86.66:8080
87.255.27.163:3128
178.176.240.49:8080
38.90.33.62:80
212.24.148.234:60759
197.234.35.82:53281
104.236.47.73:8080
173.82.133.141:5836
173.82.177.214:5836
40.121.198.48:80
161.35.97.206:80
186.159.3.41:30334
172.254.124.231:3128
1.20.100.227:57396
103.69.220.2:45155
203.188.246.67:8080
123.200.26.22:48280
47.88.7.18:8088
68.183.48.96:8080
118.69.140.108:53281
123.200.26.22:48280
103.57.70.248:52000
138.68.240.218:8080
103.240.161.109:6666
109.172.57.250:23500
212.83.151.131:5836
110.164.91.50:51065
157.245.211.150:3128
163.172.29.76:5836
155.0.181.254:31359
199.188.92.99:8000
79.101.98.2:53281
5.62.159.47:8085
12.139.101.101:80
163.172.124.72:5836
5.62.159.28:8085
209.250.229.235:8080
173.192.128.238:25
96.9.69.164:53281
71.168.222.78:3128
177.99.206.82:8080
46.10.199.90:34607
198.98.51.240:8080
192.140.91.133:50701
202.142.153.181:32296
198.211.109.14:80
71.183.100.76:42413
173.82.55.156:5836
109.172.57.250:23500
80.65.28.57:30962
161.199.130.1:8080
163.172.71.110:8123
163.172.202.234:5836
63.249.67.70:53281
177.154.224.206:44488
155.0.181.254:31359
202.131.234.142:35563
105.27.238.160:80
112.78.143.26:47718
149.28.227.11:8080
41.217.217.60:58734
12.139.101.97:80
190.103.178.14:8080
185.25.136.160:8080
51.158.20.64:5836
71.183.100.76:42413
201.204.46.10:39371
144.202.87.27:8080
200.89.159.153:8080
193.188.254.67:53281
138.68.240.218:8080
5.62.159.134:8085
12.139.101.96:80
119.82.252.29:34661
161.35.49.101:8080
163.172.224.66:5836
125.26.99.223:32703
77.238.79.111:8080
5.62.159.139:8085
163.172.231.3:5836
104.154.143.77:3128
125.26.6.61:60121
14.162.145.116:30762
103.253.113.54:8080
162.243.108.129:3128
125.25.165.97:39021
104.45.188.43:3128
103.227.147.142:37581
159.192.97.181:23500
103.236.114.38:49638
200.89.159.153:8080
34.83.68.150:8080
118.69.219.185:55184
69.197.191.214:31282
51.158.186.242:8811
34.87.88.180:80
173.82.17.190:5836
200.89.159.153:8080
3.21.117.16:80
177.99.206.82:8080
95.0.66.21:8080
31.129.253.30:40223
155.0.181.254:31359
103.58.74.2:8080
133.167.86.66:8080
85.237.56.101:8080
198.211.109.14:80
107.178.4.215:35330
103.106.219.116:8080
173.82.55.155:5836
202.79.16.129:60122
185.130.105.105:65022
185.158.127.9:53281
5.62.157.181:8085
115.124.73.130:43520
51.158.180.150:8811
81.145.20.214:8080
163.172.136.226:8811
78.108.66.26:3128
117.58.241.164:52636
159.89.189.98:3128
168.232.165.87:8080
12.139.101.98:80
202.169.38.198:30612
45.63.19.95:8080
187.86.137.141:58918
96.9.77.71:8080
47.52.255.67:80
200.52.141.162:53281
95.0.66.21:8080
173.82.133.141:5836
163.172.224.60:5836
2.57.77.232:8085
110.164.91.50:51065
159.203.82.173:3128
222.124.154.19:23500
103.227.147.142:37581
173.82.177.214:5836
103.106.28.78:30909
103.250.157.39:6666
103.227.147.142:37581
208.98.186.80:53630
157.245.62.184:3000
206.189.82.151:8080
194.5.206.231:8080
178.33.251.230:3129
36.67.66.202:41259
103.27.77.200:31282
199.188.92.69:8000
199.188.92.69:8000
5.62.157.158:8085
103.31.227.27:8080
118.172.201.80:46677
81.252.38.12:8080
37.120.192.154:8080
216.158.89.114:8088
51.158.172.165:8811
69.162.107.78:5836
185.128.37.4:8080
5.62.157.34:8085
159.138.3.119:443
79.137.123.252:3139
138.68.240.218:8080
212.129.63.157:5836
149.28.10.116:8080
131.148.11.146:80
51.158.98.121:8811
207.148.16.164:8080
212.129.63.157:5836
87.255.27.163:3128
202.131.234.142:35563
168.0.86.146:8080
31.192.153.50:53281
163.172.146.119:8811
206.189.82.151:8080
207.148.16.164:8080
47.244.126.160:8081
198.148.105.198:8080
104.255.168.202:5836
103.58.74.2:8080
65.182.5.212:8080
187.86.137.141:58918
51.158.180.150:8811
155.0.181.254:31359
197.210.187.46:45753
81.145.20.214:8080
89.251.70.61:38408
163.172.231.3:5836
50.115.173.33:5836
5.62.157.176:8085
78.46.81.7:1080
46.235.53.26:3128
175.106.17.62:45864
91.205.131.150:40694
138.68.240.218:8080
161.35.15.145:8080
87.255.27.163:3128
185.128.37.4:8080
110.76.128.53:42670
222.122.60.175:44444
64.227.126.28:3128
149.248.32.148:8080
200.52.141.162:53281
2.57.76.126:8085
163.172.224.79:5836
203.153.20.64:53281
212.129.51.34:5836
163.172.146.119:8811
1.20.100.227:57396
216.158.89.114:8088
110.76.128.53:42670
109.172.57.250:23500
36.37.177.186:8080
80.187.140.26:8080
181.118.167.104:80
125.26.6.61:60121
43.248.24.158:51166
163.172.124.20:5836
78.108.66.26:3128
205.185.127.8:8080
178.62.110.236:8080
138.94.37.29:8080
69.162.92.147:5836
91.211.172.104:55218
209.250.229.235:8080
45.32.185.195:80
178.47.139.151:58792
209.190.32.28:3128
69.162.111.165:5836
82.135.148.201:8081
5.62.157.176:8085
199.91.230.146:8080
161.35.50.98:3128
51.158.172.165:8811
51.158.180.150:8811
199.188.92.99:8000
197.210.187.46:45753
51.158.98.121:8811
81.145.20.214:8080
212.129.63.157:5836
104.248.6.88:8080
31.129.253.30:40223
62.205.169.74:53281
104.245.69.26:3128
185.128.37.4:8080
163.172.202.234:5836
94.244.28.246:31280
222.124.154.19:23500
186.159.3.41:30334
151.252.108.65:38069
163.172.224.97:5836
206.189.30.218:3128
45.235.87.94:53781
1.10.186.35:37235
163.172.60.116:8118
125.26.99.185:56119
103.83.36.53:5836
124.156.98.172:80
104.255.168.202:5836
54.82.228.139:80
38.21.34.224:8080
213.174.10.58:44051
103.227.147.142:37581
169.255.126.211:60129
134.209.29.120:3128
195.225.48.97:58302
5.62.159.232:8085
103.236.114.38:49638
5.62.157.34:8085
167.172.136.107:80
47.244.126.160:8081
12.5.154.153:80
108.74.113.180:80
173.82.55.154:5836
46.235.53.26:3128
104.154.143.77:3128
182.52.90.43:33326
149.248.35.72:8080
213.58.202.70:54214
5.62.157.158:8085
49.248.154.232:80
50.235.149.74:8080
161.35.50.98:3128
213.58.202.70:54214
45.63.97.27:31801
117.58.241.164:52636
203.188.246.67:8080
181.118.167.104:80
103.57.70.248:52000
206.189.30.218:3128
41.190.147.158:37010
82.135.148.201:8081
46.235.53.26:3128
133.167.86.66:8080
36.89.129.15:35270
138.68.60.8:3128
36.89.189.77:51922
79.137.123.252:3139
45.55.53.228:44578
104.248.6.88:8080
36.37.177.186:8080
206.189.82.151:8080
109.172.57.250:23500
38.147.164.241:80
50.249.79.18:8080
203.153.20.64:53281
158.46.127.222:52574
134.209.29.120:3128
163.172.224.60:5836
34.94.93.33:8080
104.244.75.26:8080
139.255.61.130:36511
177.92.20.182:46212
69.197.191.214:31282
185.25.136.160:8080
109.75.140.158:59916
124.156.98.172:80
49.12.35.192:8080
199.188.92.69:8000
200.89.159.153:8080
125.26.99.223:32703
1.20.100.227:57396
41.190.147.158:37010
1.20.101.62:39928
51.158.180.179:8811
169.57.157.146:8123
51.158.98.121:8811
125.26.6.61:60121
199.195.248.24:8080
161.199.130.1:8080
24.172.82.94:53281
213.98.67.40:41005
163.172.180.18:8811
69.162.111.165:5836
166.249.185.133:41942
94.153.169.22:59177
203.173.92.254:53080
178.47.139.151:58792
195.69.221.198:33972
185.34.22.225:37879
41.190.147.158:37010
104.154.143.77:3128
200.52.141.162:53281
35.167.52.229:80
104.238.156.32:8080
131.148.11.146:80
91.187.113.205:53281
41.217.217.60:58734
40.121.198.48:80
15.165.85.203:3128
193.200.151.69:48241
149.248.32.148:8080
103.253.113.54:8080
162.249.248.218:53281
125.26.99.185:56119
31.192.153.50:53281
103.106.219.116:8080
14.162.145.116:30762
128.0.179.234:41258
198.204.253.114:3128
161.35.50.98:3128
5.62.157.164:8085
69.162.92.147:5836
175.100.16.20:37725
51.158.180.179:8811
2.57.76.126:8085
207.157.220.8:8080
69.162.84.219:5836
146.148.59.22:80
36.37.177.186:8080
209.97.150.167:8080
118.172.201.80:46677
161.35.50.98:3128
50.115.173.33:5836
41.190.147.158:37010
129.205.173.242:32457
1.20.100.227:57396
170.81.35.26:36681
37.120.192.154:8080
50.236.148.246:39970
155.0.181.254:31359
173.212.202.65:80
38.126.254.114:45517
14.162.145.116:30762
194.5.206.231:8080
110.76.128.53:42670
1.20.102.228:61606
50.236.148.246:39970
80.187.140.26:8080
12.139.101.100:80
104.255.168.205:5836
200.89.159.153:8080
185.34.22.225:37879
159.192.97.181:23500
203.153.20.64:53281
89.251.70.61:38408
104.236.54.196:8080
178.62.110.236:8080
202.79.16.129:60122
46.235.53.26:3128
95.67.65.18:53281
62.205.169.74:53281
98.190.250.150:48678
118.69.50.154:80
163.172.11.229:5836
79.101.98.2:53281
195.9.61.22:56099
50.236.148.246:39970
3.215.213.177:80
104.236.54.196:8080
5.62.159.47:8085
54.175.186.38:8118
202.142.153.181:32296
5.62.159.134:8085
181.118.167.104:80
52.41.94.5:80
222.124.154.19:23500
213.98.67.40:41005
51.158.123.35:8811
194.183.168.129:31385
94.244.28.246:31280
175.106.17.62:45864
80.65.28.57:30962
110.164.91.50:51065
138.68.60.8:3128
170.247.152.163:60571
85.237.56.101:8080
163.172.98.148:5836
74.15.191.160:41564
37.120.192.154:8080
134.209.29.120:3128
50.201.51.216:8080
200.52.141.162:53281
107.150.22.210:8080
12.5.154.153:80
107.178.4.215:35330
193.213.89.72:51024
69.162.107.77:5836
181.48.47.26:53281
173.82.55.154:5836
212.129.63.157:5836
198.98.54.241:8080
203.153.20.64:53281
31.179.224.42:38263
85.237.56.101:8080
163.172.189.32:8811
5.62.157.195:8085
51.15.157.176:5836
202.131.234.142:35563
181.118.167.104:80
163.172.231.64:5836
12.5.154.153:80
5.62.159.54:8085
199.188.92.99:8000
5.62.159.240:8085
203.207.52.206:8085
158.46.127.222:52574
91.187.113.205:53281
5.62.157.39:8085
196.1.184.6:52963
167.172.227.154:8080
69.162.92.148:5836
45.67.219.194:8080
103.250.157.39:6666
168.232.165.87:8080
103.102.139.186:39184
198.204.253.114:3128
5.62.159.28:8085
179.124.242.34:41886
181.40.122.102:8080
216.158.89.114:8088
118.172.201.80:46677
191.96.42.80:3128
45.235.87.94:53781
81.252.38.12:8080
31.129.253.30:40223
12.139.101.100:80
14.162.145.116:30762
43.248.24.158:51166
79.101.98.2:53281
103.83.36.53:5836
217.151.232.221:53281
197.210.187.46:45753
103.253.113.54:8080
173.212.202.65:80
163.172.202.234:5836
163.172.71.110:8123
5.62.157.91:8085
137.220.33.70:8080
200.89.159.153:8080
178.134.208.126:50297
176.92.148.160:3128
203.207.52.206:8085
180.211.186.90:33723
82.102.10.250:3128
91.142.174.224:34009
91.187.113.205:53281
118.172.201.80:46677
45.236.128.29:3128
181.40.122.102:8080
104.45.188.43:3128
51.158.180.150:8811
5.62.157.176:8085
50.249.79.18:8080
199.195.248.24:8080
185.25.136.160:8080
118.69.140.108:53281
1.20.101.62:39928
206.189.30.218:3128
36.37.177.186:8080
95.67.65.18:53281
205.185.127.8:8080
134.122.122.60:8080
212.129.63.157:5836
159.192.97.181:23500
69.162.92.148:5836
81.144.138.35:3128
45.67.219.194:8080
68.15.31.118:48678
197.210.187.46:45753
49.248.154.232:80
194.183.168.129:31385
217.151.232.221:53281
23.31.218.226:80
45.63.51.89:81
5.62.157.34:8085
182.52.90.43:33326
103.206.246.214:8080
109.172.57.250:23500
134.209.38.177:3128
206.189.82.151:8080
81.163.38.173:41258
47.52.255.67:80
79.101.98.2:53281
167.172.217.218:8080
104.154.143.77:3128
36.89.129.15:35270
117.197.99.118:80
36.37.177.186:8080
103.58.74.2:8080
157.245.62.184:3000
51.158.180.179:8811
27.50.18.42:23500
192.140.91.133:50701
80.65.28.57:30962
94.141.244.39:34166
176.28.75.230:54657
103.58.74.2:8080
163.172.146.119:8811
163.172.146.119:8811
167.172.227.154:8080
95.67.65.18:53281
104.236.47.73:8080
67.219.116.234:8080
46.10.199.90:34607
1.10.186.35:37235
36.89.129.15:35270
77.238.79.111:8080
177.92.20.182:46212
190.6.200.158:38256
89.251.70.61:38408
95.84.128.25:33765
65.182.5.212:8080
95.84.128.25:33765
171.224.190.165:8080
128.0.179.234:41258
172.254.124.231:3128
103.31.227.27:8080
103.235.199.46:31611
161.35.50.98:3128
180.178.102.174:55443
51.158.180.150:8811
37.120.192.154:8080
74.15.191.160:41564
213.109.6.85:47972
34.216.89.174:53281
104.154.143.77:3128
212.109.196.159:8118
2.57.77.177:8085
173.82.55.156:5836
203.173.92.254:53080
190.5.118.42:8080
213.174.10.58:44051
118.174.196.112:36314
79.101.98.2:53281
113.53.83.212:44664
15.165.85.203:3128
131.148.11.146:80
212.83.184.210:5836
197.210.217.66:56625
5.62.157.44:8085
5.56.133.117:7080
194.183.168.129:31385
5.62.157.38:8085
5.59.141.152:61981
140.144.90.53:80
46.10.199.90:34607
103.57.36.161:8080
103.83.116.106:55443
34.94.93.33:8080
173.82.177.214:5836
103.206.246.214:8080
5.62.159.222:8085
18.224.39.7:3128
206.81.1.249:3128
163.172.180.18:8811
167.71.120.182:3128
103.106.219.116:8080
206.81.1.47:8080
36.89.189.77:51922
103.253.113.54:8080
191.96.42.80:3128
103.57.70.248:52000
51.158.107.202:8811
203.172.185.122:47746
157.245.174.129:3128
163.172.71.110:8123
103.235.199.46:31611
50.192.195.69:52018
27.50.18.42:23500
161.35.97.206:80
119.82.252.29:34661
103.57.36.161:8080
129.205.173.242:32457
125.26.99.185:56119
103.111.29.250:8080
12.139.101.97:80
210.120.84.243:808
163.172.224.76:5836
104.255.168.202:5836
5.62.159.134:8085
50.233.228.147:8080
110.164.91.50:51065
104.255.169.35:5836
185.189.102.153:44981
171.224.190.165:8080
125.26.99.223:32703
104.236.47.73:8080
181.40.122.102:8080
103.27.77.200:31282
185.134.23.198:80
195.9.61.22:56099
103.57.70.248:52000
185.134.23.197:80
5.56.133.225:34567
209.250.229.235:8080
5.62.157.161:8085
96.9.77.71:8080
173.82.74.60:5836
5.59.141.152:61981
89.251.70.61:38408
200.52.141.162:53281
69.162.82.155:5836
68.15.31.118:48678
203.188.246.67:8080
149.28.227.11:8080
179.124.242.34:41886
118.69.219.185:55184
192.200.200.87:3128
5.62.157.195:8085
180.250.153.129:53281
95.68.115.202:53281
173.82.147.9:5836
178.62.110.236:8080
104.45.188.43:3128
129.205.173.242:32457
163.172.114.81:5836
185.130.105.105:65022
1.20.100.227:57396
216.158.89.114:8088
51.158.180.150:8811
163.172.60.116:8118
190.103.178.14:8080
169.255.126.211:60129
18.132.18.81:80
186.159.3.41:30334
78.130.145.167:39825
203.172.185.122:47746
105.213.69.42:8080
212.129.63.157:5836
194.183.168.129:31385
113.53.83.212:44664
63.249.67.70:53281
78.108.66.26:3128
5.62.159.186:8085
163.172.114.81:5836
103.83.116.226:55443
162.243.108.129:3128
185.128.37.4:8080
103.119.145.138:8080
47.89.193.30:8118
47.51.51.190:8080
131.148.11.146:80
77.238.79.111:8080
198.98.51.240:8080
67.219.116.234:8080
202.137.5.1:3888
86.123.166.109:8080
178.33.251.230:3129
41.217.217.60:58734
203.207.52.206:8085
43.248.24.158:51166
77.238.79.111:8080
50.241.148.97:8080
118.69.140.108:53281
213.98.67.40:41005
117.197.99.118:80
51.158.172.165:8811
163.172.28.22:80
169.255.126.211:60129
202.131.234.142:35563
31.192.153.50:53281
196.1.184.6:52963
163.172.224.60:5836
185.130.105.119:65022
149.28.227.11:8080
82.102.10.250:3128
194.5.206.231:8080
190.103.178.15:8080
15.165.85.203:3128
34.106.29.57:80
3.215.213.177:80
3.8.134.151:80
151.252.108.65:38069
202.137.5.1:3888
51.158.20.64:5836
197.234.35.82:53281
110.76.128.53:42670
91.187.113.205:53281
171.224.190.165:8080
81.163.38.173:41258
119.82.252.29:34661
104.45.188.43:3128
205.158.57.2:53281
117.197.99.118:80
170.247.152.163:60571
198.98.51.240:8080
36.89.76.77:8080
118.69.140.108:53281
36.89.182.153:36152
163.172.202.234:5836
158.46.127.222:52574
150.109.32.166:80
134.209.29.120:3128
117.197.99.118:80
125.25.165.97:39021
79.101.98.2:53281
163.172.202.103:5836
47.88.7.18:8088
162.248.247.153:32592
5.62.157.124:8085
12.139.101.101:80
1.20.101.62:39928
69.162.111.163:5836
203.172.185.122:47746
196.1.184.6:52963
206.189.82.151:8080
190.103.178.15:8080
163.172.124.20:5836
91.142.174.224:34009
163.172.224.76:5836
12.139.101.98:80
150.109.32.166:80
213.174.10.58:44051
198.204.253.114:3128
50.235.149.74:8080
3.21.117.16:80
212.83.151.131:5836
103.235.199.46:31611
51.158.172.165:8811
157.245.211.150:3128
163.172.224.79:5836
23.137.128.122:41549
92.247.93.142:60762
163.172.202.103:5836
163.172.98.25:80
31.192.153.50:53281
104.45.188.43:3128
222.124.154.19:23500
47.91.105.34:80
182.52.90.43:33326
113.53.83.212:44664
191.96.42.80:3128
95.67.65.18:53281
181.48.47.26:53281
103.236.114.38:49638
185.130.105.105:65022
69.162.111.163:5836
163.172.224.97:5836
96.9.69.164:53281
118.172.201.80:46677
125.26.6.61:60121
81.95.131.10:44292
95.84.128.25:33765
47.91.105.34:80
163.172.231.3:5836
34.106.29.57:80
199.188.92.99:8000
69.162.123.106:5836
81.95.131.10:44292
104.255.168.202:5836
5.62.157.34:8085
192.140.91.133:50701
36.89.189.77:51922
109.172.57.250:23500
159.203.82.173:3128
5.62.157.195:8085
5.62.157.44:8085
103.119.145.138:8080
177.99.206.82:8080
163.172.224.60:5836
163.172.198.72:5836
163.172.202.103:5836
194.183.168.129:31385
197.234.35.82:53281
5.62.159.171:8085
31.129.253.30:40223
103.57.70.248:52000
187.86.137.141:58918
185.134.23.198:80
197.234.35.82:53281
144.202.87.27:8080
69.162.123.109:5836
77.238.79.111:8080
36.89.182.153:36152
37.120.192.154:8080
103.58.74.2:8080
2.57.77.177:8085
195.69.221.198:33972
34.83.68.150:8080
91.211.172.104:55218
139.255.61.130:36511
203.173.92.254:53080
35.167.52.229:80
5.62.157.179:8085
69.162.123.106:5836
47.52.255.67:80
159.224.182.206:33067
134.90.229.118:52972
212.83.151.131:5836
12.139.101.97:80
148.77.34.195:48521
163.172.136.226:8811
51.158.180.150:8811
197.210.187.46:45753
45.55.53.228:44578
168.0.86.146:8080
140.144.90.53:80
5.62.157.38:8085
41.169.165.98:39614
197.210.217.66:56625
105.27.238.160:80
5.62.157.52:8085
202.79.16.129:60122
1.20.100.227:57396
203.153.20.64:53281
200.89.159.153:8080
179.124.242.34:41886
222.122.60.175:44444
104.255.168.205:5836
161.35.97.206:80
47.91.105.34:80
31.192.153.50:53281
5.56.133.225:34567
202.142.153.181:32296
109.172.57.250:23500
216.198.188.26:51068
5.62.157.91:8085
179.124.242.34:41886
51.158.20.64:5836
186.159.3.41:30334
157.245.211.150:3128
5.62.159.240:8085
109.172.57.250:23500
5.23.102.194:52803
155.138.159.121:8080
163.172.29.74:5836
125.26.99.223:32703
149.248.32.148:8080
103.253.113.54:8080
193.188.254.67:53281
140.144.90.53:80
177.154.224.206:44488
134.90.229.118:52972
103.59.190.2:61209
103.216.82.153:6666
37.120.192.154:8080
63.82.52.254:8080
203.153.20.64:53281
103.83.36.53:5836
150.129.171.123:6666
125.26.99.185:56119
103.83.116.106:55443
198.204.253.114:3128
27.50.18.42:23500
64.227.126.28:3128
91.211.172.104:55218
86.123.166.109:8080
203.153.20.64:53281
163.172.124.20:5836
47.91.105.34:80
189.127.106.16:53897
69.162.92.148:5836
192.140.91.133:50701
51.158.123.35:8811
54.175.186.38:8118
103.69.220.2:45155
51.158.186.242:8811
163.172.124.20:5836
203.202.254.206:51269
47.91.105.34:80
163.172.146.119:8811
43.248.24.158:51166
162.248.247.153:32592
88.79.82.103:8080
103.111.20.139:44462
34.87.96.183:80
180.211.186.90:33723
36.89.194.113:38622
103.83.116.106:55443
52.170.3.71:80
117.197.99.118:80
203.207.52.206:8085
195.69.221.198:33972
108.61.89.23:8080
82.135.148.201:8081
104.255.168.205:5836
213.174.10.58:44051
103.57.36.161:8080
51.158.180.150:8811
3.215.213.177:80
103.227.147.142:37581
213.174.10.58:44051
196.1.184.6:52963
185.130.105.119:65022
163.172.98.25:80
107.150.22.210:8080
179.124.242.34:41886
82.102.10.250:3128
51.158.172.165:8811
103.119.145.138:8080
88.79.82.103:8080
103.253.113.54:8080
103.57.70.248:52000
173.212.202.65:80
197.210.217.66:56625
190.5.118.42:8080
197.210.187.46:45753
5.62.157.161:8085
144.202.87.27:8080
157.245.211.150:3128
110.164.91.50:51065
173.82.147.9:5836
91.187.113.205:53281
63.82.52.254:8080
170.247.152.163:60571
12.139.101.96:80
24.172.225.122:53281
103.69.220.2:45155
5.62.159.186:8085
78.46.81.7:1080
38.90.33.62:80
150.129.171.123:6666
104.154.143.77:3128
125.25.165.97:39021
68.183.53.126:3128
178.62.110.236:8080
12.139.101.101:80
192.200.200.87:3128
31.129.253.30:40223
36.37.177.186:8080
185.34.22.225:37879
38.90.33.62:80
51.158.172.165:8811
146.148.59.22:80
173.82.55.155:5836
198.211.109.14:80
36.89.182.153:36152
167.172.227.154:8080
198.98.54.241:8080
12.139.101.97:80
103.240.161.109:6666
162.252.57.246:5836
12.139.101.102:80
104.245.228.65:8080
103.102.139.186:39184
5.62.157.181:8085
2.57.76.126:8085
108.74.113.180:80
5.62.157.158:8085
163.172.198.72:5836
38.126.254.114:45517
173.82.177.214:5836
103.111.29.250:8080
51.158.98.121:8811
159.138.20.247:80
110.76.128.53:42670
115.124.73.130:43520
88.79.82.103:8080
14.162.145.116:30762
108.74.113.180:80
181.118.167.104:80
213.174.10.58:44051
212.109.196.159:8118
213.98.67.40:41005
144.202.87.27:8080
82.135.148.201:8081
103.111.29.250:8080
52.170.3.71:80
103.106.219.116:8080
163.172.202.153:5836
182.52.90.43:33326
51.158.186.242:8811
137.220.33.70:8080
51.158.180.179:8811
222.124.154.19:23500
167.71.89.170:8080
199.188.92.99:8000
182.53.206.44:45900
194.183.168.129:31385
213.58.202.70:54214
98.190.250.150:48678
182.16.171.65:30679
45.67.219.194:8080
192.140.91.133:50701
209.190.32.28:3128
51.15.157.176:5836
103.83.116.106:55443
69.162.123.106:5836
203.207.52.206:8085
209.250.229.235:8080
182.52.90.43:33326
161.35.50.98:3128
109.172.57.250:23500
67.219.116.234:8080
149.28.227.11:8080
150.129.171.123:6666
198.98.54.241:8080
203.153.20.64:53281
1.20.102.228:61606
82.135.148.201:8081
52.44.221.195:8080
185.130.105.105:65022
185.25.136.160:8080
104.255.168.203:5836
88.79.82.103:8080
5.62.157.181:8085
103.69.220.2:45155
18.224.39.7:3128
198.98.50.164:8080
80.187.140.26:8080
88.198.24.108:8080
47.91.105.34:80
159.65.171.69:80
31.192.153.50:53281
157.245.62.184:3000
198.211.109.14:80
190.103.178.15:8080
167.172.217.218:8080
92.51.149.81:3128
149.248.32.148:8080
110.164.91.50:51065
51.91.254.196:31282
103.227.147.142:37581
118.69.219.185:55184
103.216.82.153:6666
112.78.143.26:47718
104.45.188.43:3128
63.220.1.43:80
207.148.16.164:8080
163.172.202.234:5836
163.172.189.32:8811
103.31.227.27:8080
181.211.38.62:47911
103.69.220.2:45155
103.250.157.39:6666
185.128.37.4:8080
117.58.241.164:52636
119.82.253.123:55281
1.20.100.227:57396
36.89.76.77:8080
103.59.190.2:61209
163.172.202.234:5836
5.62.157.15:8085
36.89.129.15:35270
45.235.87.94:53781
65.184.156.234:33247
203.173.92.254:53080
210.120.84.243:808
5.59.141.152:61981
104.154.143.77:3128
162.249.248.218:53281
187.86.137.141:58918
45.235.87.94:53781
181.40.122.102:8080
163.172.224.66:5836
23.137.128.122:41549
62.118.131.240:3128
124.156.98.172:80
206.189.82.151:8080
103.83.116.106:55443
138.94.37.29:8080
103.57.70.248:52000
125.26.99.223:32703
5.62.157.184:8085
197.210.187.46:45753
119.82.253.123:55281
50.236.148.246:39970
103.58.74.2:8080
12.139.101.98:80
170.247.152.163:60571
109.172.57.250:23500
80.65.28.57:30962
203.153.20.64:53281
216.158.89.114:8088
41.217.217.60:58734
203.19.92.3:80
69.162.123.109:5836
163.172.71.110:8123
173.82.147.9:5836
31.179.224.42:38263
113.53.83.212:44664
36.89.129.15:35270
91.142.174.224:34009
198.211.109.14:80
138.68.240.218:8080
160.119.126.54:8080
216.158.89.114:8088
185.34.22.225:37879
104.236.47.73:8080
163.172.202.153:5836
45.63.97.27:31801
5.62.157.195:8085
96.9.69.164:53281
180.250.153.129:53281
103.111.20.139:44462
172.254.124.231:3128
157.245.174.129:3128
115.124.73.130:43520
1.20.100.227:57396
92.247.93.142:60762
113.53.83.212:44664
41.169.165.98:39614
179.124.242.34:41886
104.154.143.77:3128
203.202.245.62:80
109.172.57.250:23500
79.101.98.2:53281
88.198.24.108:8080
47.88.7.18:8088
110.76.128.53:42670
50.233.42.98:51696
213.174.10.58:44051
205.158.57.2:53281
110.164.91.50:51065
72.182.145.208:80
134.209.29.120:3128
212.129.51.34:5836
103.57.70.248:52000
103.235.199.46:31611
190.103.178.14:8080
80.65.28.57:30962
81.144.138.35:3128
5.62.159.139:8085
177.99.206.82:8080
104.45.188.43:3128
163.172.224.66:5836
78.137.92.223:8080
113.53.83.212:44664
31.192.153.50:53281
110.164.91.50:51065
182.52.51.47:41146
104.248.160.192:80
103.58.74.2:8080
14.162.145.116:30762
173.82.74.60:5836
104.255.168.202:5836
185.189.102.153:44981
51.158.180.179:8811
160.119.126.54:8080
163.172.28.22:80
166.249.185.133:41942
12.218.209.130:53281
87.255.27.163:3128
38.21.34.224:8080
69.162.107.77:5836
23.137.128.122:41549
103.205.128.77:43037
212.129.63.157:5836
179.124.242.34:41886
78.141.198.86:30924
167.172.217.218:8080
159.192.97.181:23500
31.129.253.30:40223
157.245.62.184:3000
187.86.137.141:58918
80.65.28.57:30962
140.144.90.53:80
137.220.51.128:8080
50.197.38.230:60724
119.82.253.123:55281
12.139.101.100:80
38.90.33.62:80
167.172.217.218:8080
173.82.147.9:5836
155.138.159.197:8080
104.238.156.32:8080
212.129.34.74:5836
206.189.82.151:8080
47.88.7.18:8088
163.172.189.32:8811
69.197.191.214:31282
212.109.196.159:8118
31.129.253.30:40223
54.175.186.38:8118
175.139.179.65:39138
163.172.136.226:8811
151.252.108.65:38069
91.211.172.104:55218
107.178.4.215:35330
96.9.77.71:8080
194.183.168.129:31385
103.83.116.106:55443
210.120.84.243:808
104.211.29.96:80
123.200.26.22:48280
50.115.173.33:5836
203.153.20.64:53281
163.172.81.148:3128
194.183.168.129:31385
12.172.76.90:8080
175.139.179.65:39138
103.111.20.139:44462
1.20.103.196:42792
161.35.46.103:80
194.183.168.129:31385
180.178.102.174:55443
173.192.128.238:25
103.69.220.2:45155
167.172.136.107:80
91.142.174.224:34009
118.69.140.108:53281
185.34.22.225:37879
159.65.171.69:80
173.192.128.238:25
149.28.227.11:8080
103.240.161.109:6666
94.141.244.39:34166
51.158.172.165:8811
103.253.113.54:8080
51.158.172.165:8811
191.96.42.80:3128
103.194.248.166:34448
34.106.29.57:80
163.172.231.26:5836
163.172.224.97:5836
200.52.141.162:53281
170.247.152.163:60571
5.62.159.54:8085
103.106.219.116:8080
203.207.52.206:8085
209.190.32.28:3128
36.89.76.77:8080
5.62.157.158:8085
5.56.133.225:34567
202.131.234.142:35563
103.216.82.209:54806
24.172.225.122:53281
189.127.106.16:53897
27.50.18.42:23500
163.172.226.89:5836
36.89.182.153:36152
27.50.18.42:23500
129.205.173.242:32457
163.172.231.26:5836
203.207.52.206:8085
173.82.55.156:5836
185.128.37.4:8080
185.204.208.78:8080
104.255.168.204:5836
5.62.157.179:8085
198.98.50.164:8080
186.159.3.41:30334
200.89.159.153:8080
82.200.233.4:3128
103.59.190.2:61209
209.250.229.235:8080
125.26.99.185:56119
47.52.255.67:80
110.164.91.50:51065
178.33.251.230:3129
45.63.51.89:81
103.4.65.125:42493
169.57.157.146:8123
1.20.100.227:57396
163.172.11.229:5836
213.120.213.242:8081
103.106.219.116:8080
187.86.137.141:58918
96.9.77.71:8080
163.172.71.110:8123
167.172.217.218:8080
222.124.154.19:23500
41.169.165.98:39614
104.236.47.73:8080
206.189.82.151:8080
54.175.186.38:8118
181.118.167.104:80
5.62.157.181:8085
103.59.190.2:61209
163.172.224.79:5836
3.211.17.212:80
161.199.130.1:8080
159.65.171.69:80
159.224.182.206:33067
202.131.234.142:35563
63.220.1.43:80
5.252.161.48:8080
177.154.224.206:44488
12.139.101.102:80
41.217.217.60:58734
203.207.52.206:8085
81.145.20.214:8080
203.29.27.4:8080
216.158.89.114:8088
173.192.128.238:25
212.129.63.157:5836
194.183.168.129:31385
133.167.86.66:8080
159.192.97.181:23500
163.172.224.66:5836
202.179.7.158:23500
113.53.83.212:44664
51.158.186.242:8811
5.252.177.213:3128
108.74.113.180:80
180.178.102.174:55443
178.47.139.151:58792
171.224.190.165:8080
206.81.1.249:3128
69.162.107.77:5836
5.62.157.195:8085
195.225.48.97:58302
163.172.180.18:8811
5.62.157.179:8085
125.25.165.97:39021
200.52.141.162:53281
18.224.39.7:3128
202.142.153.181:32296
12.139.101.100:80
95.139.194.110:80
104.236.47.73:8080
47.91.105.34:80
5.252.177.213:3128
91.142.174.224:34009
78.130.145.167:39825
92.247.93.142:60762
163.172.224.53:5836
91.187.113.205:53281
185.204.208.78:8080
103.253.113.54:8080
185.128.37.4:8080
167.172.217.218:8080
96.9.77.71:8080
159.192.97.181:23500
104.248.160.192:80
5.62.159.232:8085
31.179.224.42:38263
163.172.202.103:5836
162.252.57.246:5836
163.172.98.148:5836
117.197.99.118:80
5.62.159.100:8085
173.82.147.9:5836
149.28.227.11:8080
185.134.23.196:80
161.35.50.98:3128
1.20.103.196:42792
193.188.254.67:53281
45.32.185.195:80
161.199.130.1:8080
203.188.246.67:8080
36.89.129.15:35270
163.172.98.25:80
185.128.37.4:8080
103.57.70.248:52000
5.59.141.152:61981
2.57.76.126:8085
36.89.194.113:38622
137.220.33.70:8080
163.172.226.89:5836
198.98.50.164:8080
5.62.159.186:8085
80.187.140.26:8080
104.248.160.192:80
199.188.92.69:8000
47.89.193.30:8118
161.35.50.98:3128
74.15.191.160:41564
202.179.7.158:23500
68.15.31.118:48678
1.20.100.227:57396
5.62.157.184:8085
175.106.17.62:45864
70.165.64.33:48678
5.62.157.91:8085
159.65.171.69:80
139.255.61.130:36511
95.67.65.18:53281
150.109.32.166:80
213.174.10.58:44051
203.173.92.254:53080
119.82.253.123:55281
1.20.100.227:57396
109.75.140.158:59916
92.51.149.81:3128
222.124.154.19:23500
51.158.180.150:8811
5.62.157.91:8085
163.172.29.74:5836
203.173.92.254:53080
167.172.238.206:8080
213.174.10.58:44051
104.255.168.203:5836
69.162.111.165:5836
5.62.157.86:8085
103.206.246.214:8080
74.15.191.160:41564
117.252.66.40:8080
103.102.139.186:39184
1.20.102.228:61606
41.217.217.60:58734
144.202.87.27:8080
1.20.102.228:61606
50.236.148.246:39970
163.172.124.72:5836
5.62.157.158:8085
5.62.159.235:8085
167.71.120.182:3128
5.62.157.181:8085
109.195.23.223:34031
45.236.128.29:3128
87.255.27.163:3128
1.20.103.196:42792
185.134.23.197:80
107.178.4.215:35330
168.0.86.146:8080
162.248.247.153:32592
63.82.52.254:8080
104.248.6.88:8080
5.62.157.86:8085
203.202.245.62:80
3.215.213.177:80
173.82.55.154:5836
18.224.39.7:3128
5.62.159.28:8085
203.202.245.62:80
104.45.188.43:3128
186.159.3.41:30334
91.211.172.104:55218
169.57.157.146:8123
161.35.49.101:8080
161.35.15.145:8080
1.20.100.227:57396
50.201.51.216:8080
36.89.182.153:36152
103.69.220.2:45155
123.200.26.22:48280
166.249.185.133:41942
173.82.177.227:5836
15.165.85.203:3128
110.76.128.53:42670
5.62.157.15:8085
104.255.168.202:5836
212.109.196.159:8118
202.79.16.129:60122
5.62.157.34:8085
170.247.152.163:60571
178.33.251.230:3129
199.188.92.99:8000
31.179.224.42:38263
5.62.159.232:8085
178.176.240.49:8080
64.225.63.80:3128
5.62.159.112:8085
157.245.62.184:3000
36.89.182.153:36152
5.62.157.124:8085
170.81.35.26:36681
131.148.11.146:80
31.192.153.50:53281
176.92.148.160:3128
65.182.5.212:8080
186.159.3.41:30334
198.211.109.14:80
208.98.185.89:53630
125.26.99.185:56119
68.15.31.118:48678
103.106.219.116:8080
133.167.86.66:8080
163.172.124.72:5836
66.23.233.90:3128
78.46.81.7:1080
91.142.174.224:34009
103.111.20.139:44462
182.52.51.47:41146
213.174.10.58:44051
149.248.35.72:8080
113.53.91.12:53281
91.187.113.205:53281
69.162.107.77:5836
155.138.159.197:8080
175.106.17.62:45864
69.197.191.214:31282
200.52.141.162:53281
173.192.128.238:25
125.26.99.223:32703
118.69.140.108:53281
202.131.234.142:35563
2.57.77.232:8085
163.172.98.148:5836
96.9.77.71:8080
36.89.129.15:35270
203.153.20.64:53281
45.67.219.194:8080
37.120.192.154:8080
125.26.99.185:56119
2.57.76.126:8085
178.47.139.151:58792
69.162.84.219:5836
103.57.70.248:52000
198.50.152.64:23500
5.62.157.179:8085
181.48.47.26:53281
203.188.246.67:8080
212.109.196.159:8118
35.167.52.229:80
196.1.184.6:52963
176.28.75.230:54657
1.10.186.35:37235
96.9.77.71:8080
91.205.131.150:40694
177.99.206.82:8080
159.224.182.206:33067
203.19.92.3:80
103.59.190.2:61209
5.62.157.52:8085
212.129.34.74:5836
105.213.69.42:8080
103.69.220.2:45155
103.105.49.53:80
134.35.171.153:8080
133.167.86.66:8080
107.150.22.210:8080
212.129.34.74:5836
125.26.99.185:56119
203.173.92.254:53080
5.62.157.184:8085
80.65.28.57:30962
162.248.247.153:32592
47.91.105.34:80
159.192.97.181:23500
5.62.159.203:8085
95.67.65.18:53281
5.62.159.20:8085
105.29.64.217:80
203.188.246.67:8080
167.71.177.222:8080
194.183.168.129:31385
31.192.153.50:53281
105.29.64.217:80
163.172.202.103:5836
45.63.97.27:31801
117.197.99.118:80
51.158.107.202:8811
166.249.185.133:41942
159.203.82.173:3128
103.206.246.214:8080
182.52.90.43:33326
88.79.82.103:8080
80.187.140.26:8080
5.62.157.176:8085
217.151.232.221:53281
91.142.174.224:34009
179.124.242.34:41886
198.98.51.240:8080
62.205.169.74:53281
1.20.102.228:61606
180.178.102.174:55443
159.192.97.181:23500
5.56.133.225:34567
202.137.5.1:3888
95.84.128.25:33765
222.124.154.19:23500
85.143.254.20:8080
5.62.159.54:8085
104.255.168.203:5836
163.172.202.234:5836
190.103.178.15:8080
163.172.98.148:5836
1.20.102.228:61606
69.162.84.219:5836
64.225.63.80:3128
128.0.179.234:41258
51.158.172.165:8811
134.209.29.120:3128
86.123.166.109:8080
192.200.200.87:3128
103.58.74.2:8080
163.172.201.210:92
163.172.202.234:5836
179.124.242.34:41886
202.169.38.198:30612
12.139.101.97:80
5.62.159.240:8085
162.248.247.153:32592
103.216.82.209:54806
118.174.196.112:36314
12.139.101.98:80
91.187.113.205:53281
80.65.28.57:30962
47.88.16.118:3128
34.83.68.150:8080
36.89.129.15:35270
107.150.22.210:8080
115.124.73.130:43520
5.62.157.184:8085
103.27.77.200:31282
104.236.47.73:8080
69.162.107.78:5836
161.35.50.98:3128
190.5.118.42:8080
190.6.200.158:38256
103.57.36.161:8080
170.81.35.26:36681
167.71.242.254:3128
51.158.172.165:8811
198.211.109.14:80
185.130.105.105:65022
104.244.75.26:8080
104.236.47.73:8080
5.62.159.240:8085
103.106.28.78:30909
91.142.174.224:34009
212.24.148.234:60759
104.45.188.43:3128
185.158.127.9:53281
149.248.32.148:8080
170.81.35.26:36681
157.245.62.184:3000
205.201.49.132:53281
79.137.123.252:3139
125.26.99.185:56119
54.175.186.38:8118
161.35.50.98:3128
105.29.64.217:80
36.37.177.186:8080
103.227.147.142:37581
5.56.133.225:34567
5.62.159.54:8085
175.212.226.58:80
200.52.141.162:53281
104.236.47.73:8080
47.52.231.140:8080
115.124.73.130:43520
125.25.165.97:39021
51.158.180.150:8811
103.227.147.142:37581
195.9.61.22:56099
50.236.148.246:39970
103.194.248.166:34448
195.69.221.198:33972
69.162.123.109:5836
185.130.105.119:65022
159.138.3.119:443
104.245.228.65:8080
34.94.93.33:8080
162.243.108.129:3128
216.198.188.26:51068
5.62.157.184:8085
78.141.198.86:30924
175.100.16.20:37725
163.172.224.94:5836
203.188.246.67:8080
79.101.98.2:53281
50.197.38.230:60724
195.69.221.198:33972
163.172.202.234:5836
47.88.7.18:8088
52.41.94.5:80
159.65.171.69:80
31.129.253.30:40223
113.53.83.212:44664
78.130.145.167:39825
31.179.224.42:38263
104.238.156.32:8080
213.98.67.40:41005
65.182.5.212:8080
77.238.79.111:8080
63.134.172.12:80
213.98.67.40:41005
129.205.173.242:32457
82.200.233.4:3128
107.152.32.206:8080
34.216.89.174:53281
47.75.71.222:3000
36.89.189.77:51922
2.57.76.230:8085
5.62.157.86:8085
192.117.146.110:80
222.124.154.19:23500
180.250.153.129:53281
103.58.74.2:8080
172.254.124.231:3128
193.200.151.69:48241
103.216.82.209:54806
206.189.30.218:3128
170.247.152.163:60571
169.57.157.146:8123
23.137.128.122:41549
52.170.3.71:80
78.46.81.7:1080
185.130.105.105:65022
35.167.52.229:80
50.115.173.33:5836
163.172.114.81:5836
193.188.254.67:53281
95.67.65.18:53281
103.58.74.2:8080
110.164.91.50:51065
131.148.11.146:80
197.210.217.66:56625
197.234.35.82:53281
180.211.186.90:33723
104.255.168.203:5836
15.165.85.203:3128
137.220.33.70:8080
190.103.178.14:8080
192.119.203.170:48678
178.33.251.230:3129
206.81.1.249:3128
118.172.201.80:46677
81.163.38.173:41258
3.8.134.151:80
198.204.253.114:3128
133.167.86.66:8080
62.205.169.74:53281
117.58.241.164:52636
173.82.55.154:5836
5.62.159.55:8085
52.44.221.195:8080
117.197.99.118:80
119.82.252.29:34661
95.84.128.25:33765
81.145.20.214:8080
67.219.116.234:8080
163.172.189.32:8811
80.65.28.57:30962
50.249.79.18:8080
34.106.29.57:80
63.134.172.12:80
173.82.177.213:5836
163.172.114.81:5836
222.124.154.19:23500
63.82.52.254:8080
180.211.186.90:33723
5.62.157.34:8085
64.227.126.28:3128
103.205.128.77:43037
206.189.30.218:3128
163.172.224.60:5836
103.28.149.253:8080
89.36.195.238:39131
110.164.91.50:51065
107.178.4.215:35330
96.9.69.164:53281
51.158.98.121:8811
5.59.141.152:61981
185.158.127.9:53281
89.23.198.13:8080
194.183.168.129:31385
50.192.195.69:52018
196.2.15.68:8080
159.192.97.181:23500
195.69.221.198:33972
173.82.177.214:5836
103.106.219.116:8080
163.172.202.153:5836
125.25.165.97:39021
103.235.199.46:31611
115.124.73.130:43520
88.198.24.108:8080
47.75.71.222:3000
47.89.193.30:8118
103.59.190.2:61209
198.98.51.240:8080
205.201.49.132:53281
206.189.30.218:3128
89.23.198.13:8080
5.62.159.240:8085
82.102.10.250:3128
5.62.159.112:8085
159.224.182.206:33067
89.23.198.13:8080
177.99.206.82:8080
163.172.201.210:92
1.10.186.35:37235
103.57.70.248:52000
51.158.98.121:8811
212.109.196.159:8118
5.62.159.171:8085
5.62.157.195:8085
103.206.246.214:8080
185.130.105.105:65022
173.82.177.214:5836
47.89.180.161:3128
103.83.116.106:55443
216.158.89.114:8088
5.62.159.80:8085
91.211.172.104:55218
104.244.75.26:8080
173.192.128.238:25
222.124.154.19:23500
197.210.187.46:45753
54.175.186.38:8118
49.248.154.232:80
81.163.38.173:41258
74.15.191.160:41564
199.195.248.24:8080
190.103.178.15:8080
222.122.60.175:44444
134.209.29.120:3128
78.108.66.26:3128
163.172.189.32:8811
64.227.126.28:3128
150.129.171.123:6666
51.158.172.165:8811
23.137.128.122:41549
70.169.145.164:48678
196.1.184.6:52963
185.130.105.119:65022
43.248.24.158:51166
159.65.171.69:80
5.62.159.186:8085
34.83.68.150:8080
24.172.82.94:53281
185.34.22.225:37879
159.224.182.206:33067
104.245.69.26:3128
203.207.52.206:8085
159.138.3.119:443
104.154.143.77:3128
47.91.105.34:80
202.131.234.142:35563
134.122.122.60:8080
150.129.171.123:6666
12.139.101.102:80
94.141.244.39:34166
150.129.171.123:6666
222.122.60.175:44444
125.26.6.61:60121
2.57.76.126:8085
118.69.219.185:55184
65.184.156.234:33247
199.167.184.124:80
5.62.159.112:8085
103.28.149.253:8080
41.190.147.158:37010
95.68.115.202:53281
185.134.23.197:80
51.158.180.179:8811
103.216.82.209:54806
222.124.154.19:23500
200.89.159.153:8080
1.20.103.196:42792
69.162.111.163:5836
71.168.222.78:3128
94.244.28.246:31280
149.248.35.72:8080
128.0.179.234:41258
95.178.216.69:8080
40.121.198.48:80
212.129.34.74:5836
202.131.234.142:35563
69.162.111.163:5836
185.44.231.2:34244
172.254.124.231:3128
176.92.148.160:3128
95.84.128.25:33765
199.91.230.146:8080
190.6.200.158:38256
80.65.28.57:30962
69.197.191.214:31282
5.23.102.194:52803
185.204.208.78:8080
103.83.116.106:55443
77.238.79.111:8080
95.67.65.18:53281
5.62.157.179:8085
104.211.29.96:80
134.249.167.184:53281
95.84.128.25:33765
12.218.209.130:53281
87.255.27.163:3128
103.102.139.186:39184
163.172.180.18:8811
194.183.168.129:31385
94.244.28.246:31280
96.9.77.71:8080
51.158.180.150:8811
5.62.159.240:8085
5.62.157.181:8085
103.206.246.214:8080
64.227.126.28:3128
181.211.38.62:47911
198.98.51.240:8080
50.235.149.74:8080
162.249.248.218:53281
1.20.100.227:57396
185.130.105.119:65022
105.29.64.217:80
103.69.220.2:45155
163.172.136.226:8811
5.62.157.38:8085
163.172.231.26:5836
54.82.228.139:80
119.82.252.29:34661
31.192.153.50:53281
104.45.188.43:3128
91.211.172.104:55218
169.255.126.211:60129
80.65.28.57:30962
63.220.1.43:80
103.58.74.2:8080
203.188.246.67:8080
206.189.30.218:3128
96.9.77.71:8080
185.128.37.4:8080
125.26.6.61:60121
185.44.231.2:34244
178.47.139.151:58792
12.139.101.96:80
78.108.66.26:3128
51.158.186.242:8811
217.112.83.235:3128
203.202.245.62:80
81.144.138.35:3128
159.138.20.247:80
207.148.16.164:8080
202.131.234.142:35563
68.183.111.90:80
200.89.159.153:8080
163.172.231.26:5836
110.164.91.50:51065
23.31.218.226:80
103.250.157.39:6666
107.150.22.210:8080
175.106.17.62:45864
206.189.82.151:8080
182.52.90.43:33326
103.216.82.209:54806
104.154.143.77:3128
200.52.141.162:53281
89.251.70.61:38408
203.173.92.254:53080
185.134.23.197:80
36.89.194.113:38622
118.69.140.108:53281
195.69.221.198:33972
23.31.218.226:80
81.163.38.173:41258
119.82.252.29:34661
5.62.159.240:8085
94.141.244.39:34166
95.0.66.21:8080
203.188.246.67:8080
133.167.86.66:8080
66.23.233.90:3128
197.210.217.66:56625
104.255.168.205:5836
115.124.73.130:43520
163.172.198.72:5836
64.227.126.28:3128
163.172.202.153:5836
80.187.140.26:8080
198.204.253.114:3128
5.59.141.152:61981
163.172.202.103:5836
91.142.174.224:34009
71.138.16.17:30421
178.176.240.49:8080
68.183.53.126:3128
161.35.46.103:80
12.139.101.100:80
216.198.188.26:51068
199.188.92.69:8000
125.25.165.97:39021
1.20.103.196:42792
149.248.32.148:8080
5.62.157.184:8085
5.62.159.20:8085
47.51.51.190:8080
166.249.185.133:41942
78.137.92.223:8080
69.162.84.221:5836
185.204.208.78:8080
91.211.172.104:55218
170.247.152.163:60571
31.179.224.42:38263
2.57.76.126:8085
12.139.101.98:80
31.129.253.30:40223
167.71.242.254:3128
203.173.92.254:53080
5.62.159.47:8085
2.57.77.232:8085
93.87.17.1:53281
51.158.172.165:8811
161.35.49.101:8080
117.58.241.164:52636
51.91.254.196:31282
167.172.238.206:8080
129.205.173.242:32457
186.159.3.41:30334
104.255.168.203:5836
163.172.227.18:5836
163.172.124.20:5836
117.252.66.40:8080
125.25.165.97:39021
180.178.102.174:55443
198.98.54.241:8080
105.213.69.42:8080
205.201.49.132:53281
80.65.28.57:30962
212.24.148.234:60759
69.162.107.78:5836
110.164.91.50:51065
163.172.189.32:8811
96.9.69.164:53281
89.251.70.61:38408
47.91.217.100:80
167.71.242.254:3128
210.120.84.243:808
51.158.107.202:8811
212.83.184.210:5836
5.62.159.20:8085
192.200.200.87:3128
213.58.202.70:54214
159.138.20.247:80
199.195.248.24:8080
148.77.34.195:48521
5.62.157.164:8085
12.139.101.96:80
190.5.118.42:8080
163.172.60.116:8118
47.91.105.34:80
47.89.180.161:3128
110.164.91.50:51065
185.130.105.119:65022
163.172.11.229:5836
5.62.159.128:8085
103.250.157.39:6666
1.20.103.196:42792
213.120.213.242:8081
123.200.26.22:48280
68.183.48.96:8080
103.236.114.38:49638
1.20.101.62:39928
134.90.229.118:52972
103.119.145.138:8080
50.192.195.69:52018
175.106.17.62:45864
12.139.101.96:80
36.67.66.202:41259
69.162.92.148:5836
69.162.107.78:5836
5.62.159.203:8085
137.220.33.70:8080
65.182.5.212:8080
192.140.91.133:50701
36.89.194.113:38622
38.147.164.241:80
194.5.206.231:8080
110.76.128.53:42670
141.105.89.85:8080
190.103.178.14:8080
5.62.159.55:8085
196.2.15.68:8080
213.58.202.70:54214
103.58.74.2:8080
163.172.146.119:8811
125.25.165.97:39021
163.172.198.72:5836
50.192.195.69:52018
103.105.49.53:80
128.0.179.234:41258
125.26.6.61:60121
212.109.196.159:8118
31.179.224.42:38263
200.89.159.153:8080
77.238.79.111:8080
171.224.190.165:8080
202.131.234.142:35563
69.162.123.106:5836
41.217.217.60:58734
187.86.137.141:58918
69.162.92.149:5836
163.172.98.25:80
27.50.18.42:23500
37.120.192.154:8080
45.63.19.95:8080
200.89.159.153:8080
118.172.201.80:46677
181.40.122.102:8080
195.9.61.22:56099
159.138.3.119:443
203.172.185.122:47746
203.202.254.206:51269
124.156.98.172:80
194.183.168.129:31385
160.119.126.54:8080
68.183.48.96:8080
66.23.233.90:3128
210.120.84.243:808
5.56.133.117:7080
137.220.33.70:8080
212.83.151.131:5836
216.158.89.114:8088
104.255.168.203:5836
103.59.190.2:61209
163.172.231.56:5836
12.139.101.98:80
125.26.99.185:56119
131.148.11.146:80
159.192.97.181:23500
3.8.134.151:80
125.26.6.61:60121
36.37.177.186:8080
52.41.94.5:80
199.167.184.124:80
1.10.186.35:37235
5.62.157.176:8085
123.200.26.22:48280
178.33.251.230:3129
197.210.217.66:56625
146.148.59.22:80
173.82.55.154:5836
103.4.65.125:42493
200.52.141.162:53281
185.158.127.9:53281
104.244.75.26:8080
133.167.86.66:8080
137.220.33.70:8080
199.188.92.69:8000
43.248.24.158:51166
180.250.153.129:53281
5.62.157.52:8085
212.109.196.159:8118
104.255.168.203:5836
70.165.64.33:48678
163.172.224.91:5836
50.236.148.246:39970
193.213.89.72:51024
169.57.157.146:8123
37.120.192.154:8080
169.255.126.211:60129
71.138.16.17:30421
159.224.182.206:33067
169.57.157.146:8123
91.211.172.104:55218
1.20.102.228:61606
161.35.15.145:8080
161.35.49.101:8080
69.162.107.78:5836
51.158.186.242:8811
24.172.225.122:53281
5.56.133.225:34567
65.152.119.226:39408
51.158.180.150:8811
173.192.128.238:25
5.62.159.112:8085
166.249.185.133:41942
74.15.191.160:41564
12.218.209.130:53281
12.139.101.97:80
199.195.248.24:8080
45.236.128.29:3128
50.192.195.69:52018
199.195.248.24:8080
51.158.180.150:8811
81.163.38.173:41258
5.62.159.232:8085
125.26.6.61:60121
181.118.167.104:80
163.172.224.94:5836
213.98.67.40:41005
190.6.200.158:38256
1.20.100.227:57396
1.20.103.196:42792
78.137.92.223:8080
134.122.122.60:8080
89.20.135.204:80
50.197.38.230:60724
157.245.62.184:3000
175.139.179.65:39138
169.57.157.146:8123
203.29.27.4:8080
198.211.109.14:80
119.82.252.29:34661
36.89.129.15:35270
163.172.224.79:5836
79.101.98.2:53281
193.200.151.69:48241
67.219.116.234:8080
190.5.118.42:8080
5.62.159.55:8085
202.169.38.198:30612
54.175.186.38:8118
112.78.143.26:47718
195.9.61.22:56099
185.189.102.153:44981
159.192.97.181:23500
104.255.168.205:5836
185.128.37.4:8080
167.172.238.206:8080
47.52.255.67:80
130.88.91.74:3128
186.159.3.41:30334
159.192.97.181:23500
185.189.102.153:44981
5.59.141.152:61981
171.224.190.165:8080
213.120.213.242:8081
179.124.242.34:41886
47.244.126.160:8081
195.225.48.97:58302
190.103.178.15:8080
108.74.113.180:80
5.62.157.158:8085
169.57.157.146:8123
12.218.209.130:53281
185.128.37.4:8080
192.117.146.110:80
185.44.231.2:34244
63.134.172.12:80
167.172.136.107:80
104.236.47.73:8080
185.128.37.4:8080
104.236.47.73:8080
80.65.28.57:30962
163.172.98.25:80
182.53.206.44:45900
47.51.51.190:8080
209.190.32.28:3128
200.52.141.162:53281
2.57.76.126:8085
69.162.92.149:5836
181.211.38.62:47911
213.174.10.58:44051
78.108.66.26:3128
167.172.30.250:3128
159.138.20.247:80
31.179.224.42:38263
96.9.69.164:53281
89.20.135.204:80
161.35.50.98:3128
180.178.102.174:55443
88.79.82.103:8080
133.167.86.66:8080
78.137.92.223:8080
50.192.195.69:52018
12.139.101.100:80
189.127.106.16:53897
149.28.227.11:8080
70.165.64.33:48678
103.83.36.53:5836
24.172.225.122:53281
163.172.146.119:8811
12.139.101.100:80
34.209.137.148:80
213.120.213.242:8081
54.82.228.139:80
74.15.191.160:41564
12.218.209.130:53281
41.217.217.60:58734
173.82.17.190:5836
192.119.203.170:48678
130.88.91.74:3128
199.195.248.24:8080
163.172.224.76:5836
148.77.34.194:48521
69.162.92.148:5836
181.118.167.104:80
5.62.159.139:8085
194.183.168.129:31385
78.108.66.26:3128
27.50.18.42:23500
5.62.157.91:8085
104.248.6.88:8080
37.120.192.154:8080
194.183.168.129:31385
88.79.82.103:8080
1.20.100.227:57396
149.28.10.116:8080
103.57.36.161:8080
66.23.233.90:3128
5.62.159.171:8085
169.45.160.130:1080
139.255.61.130:36511
203.173.92.254:53080
31.179.224.42:38263
163.172.189.32:8811
95.68.115.202:53281
92.247.93.142:60762
95.67.65.18:53281
51.158.20.64:5836
151.252.108.65:38069
103.102.139.186:39184
189.127.106.16:53897
89.23.198.13:8080
5.62.159.222:8085
82.102.10.250:3128
200.52.141.162:53281
2.57.76.230:8085
103.227.147.142:37581
104.45.188.43:3128
78.46.40.156:8118
51.158.186.242:8811
77.238.79.111:8080
185.130.105.119:65022
178.62.110.236:8080
103.111.20.139:44462
103.57.36.161:8080
50.233.42.98:51696
103.58.74.2:8080
175.106.17.62:45864
109.195.23.223:34031
155.0.181.254:31359
155.0.181.254:31359
181.40.122.102:8080
155.0.181.254:31359
206.189.82.151:8080
12.172.76.90:8080
181.40.122.102:8080
37.120.192.154:8080
1.20.102.228:61606
104.245.228.65:8080
71.138.16.17:30421
103.206.246.214:8080
159.192.97.181:23500
91.187.113.205:53281
202.137.5.1:3888
163.172.224.91:5836
191.96.42.80:3128
170.81.35.26:36681
170.81.35.26:36681
69.162.84.221:5836
103.253.113.54:8080
198.204.253.114:3128
163.172.189.32:8811
110.164.91.50:51065
12.5.154.153:80
5.62.157.184:8085
54.175.186.38:8118
151.252.108.65:38069
213.58.202.70:54214
109.172.57.250:23500
163.172.146.119:8811
173.82.147.9:5836
178.62.110.236:8080
167.172.217.218:8080
163.172.29.74:5836
155.138.159.121:8080
103.69.220.2:45155
103.106.28.78:30909
110.76.128.53:42670
182.52.90.43:33326
213.98.67.40:41005
212.129.34.74:5836
81.163.38.173:41258
190.5.118.42:8080
3.215.213.177:80
5.62.157.91:8085
163.172.224.53:5836
95.67.65.18:53281
82.135.148.201:8081
161.35.50.98:3128
51.158.186.242:8811
202.179.7.158:23500
45.63.51.89:81
69.162.111.163:5836
40.121.198.48:80
47.91.217.100:80
43.248.24.158:51166
134.35.171.153:8080
51.15.157.176:5836
185.128.37.4:8080
203.19.92.3:80
203.173.92.254:53080
81.144.138.35:3128
185.128.37.4:8080
103.27.77.200:31282
139.255.61.130:36511
103.119.145.138:8080
103.27.77.200:31282
5.62.157.52:8085
89.36.195.238:39131
196.1.184.6:52963
93.87.17.1:53281
163.172.231.3:5836
5.62.157.179:8085
192.117.146.110:80
180.178.102.174:55443
104.248.160.192:80
190.103.178.15:8080
178.62.110.236:8080
213.58.202.70:54214
197.210.217.66:56625
51.158.20.64:5836
5.62.159.235:8085
104.236.54.196:8080
163.172.146.119:8811
198.98.54.241:8080
115.124.73.130:43520
203.188.246.67:8080
5.62.157.15:8085
150.109.32.166:80
64.225.63.80:3128
212.109.196.159:8118
178.176.240.49:8080
5.62.157.86:8085
5.62.159.55:8085
54.175.186.38:8118
181.48.47.26:53281
163.172.202.153:5836
81.95.131.10:44292
163.172.189.32:8811
200.52.141.162:53281
163.172.146.119:8811
179.124.242.34:41886
12.139.101.97:80
103.31.227.27:8080
34.216.89.174:53281
5.56.133.225:34567
36.89.194.113:38622
202.179.7.158:23500
82.135.148.201:8081
91.142.174.224:34009
5.62.157.164:8085
163.172.29.76:5836
129.205.173.242:32457
196.2.15.68:8080
173.82.74.60:5836
50.235.149.74:8080
103.111.29.250:8080
110.164.91.50:51065
209.97.150.167:8080
171.224.190.165:8080
69.162.82.155:5836
47.52.231.140:8080
133.167.86.66:8080
5.62.157.181:8085
5.62.157.195:8085
119.82.252.29:34661
103.111.29.250:8080
88.79.82.103:8080
41.190.147.158:37010
5.62.157.158:8085
65.184.156.234:33247
68.15.31.118:48678
167.172.136.107:80
78.46.40.156:8118
166.249.185.133:41942
217.112.83.235:3128
96.9.69.164:53281
43.248.24.158:51166
103.69.220.2:45155
104.45.188.43:3128
51.158.172.165:8811
77.238.79.111:8080
45.63.97.27:31801
5.62.159.112:8085
1.20.101.62:39928
163.172.189.32:8811
1.10.186.35:37235
103.83.36.53:5836
5.62.157.164:8085
169.57.157.146:8123
117.58.241.164:52636
69.162.92.148:5836
92.247.93.142:60762
71.168.222.78:3128
133.167.86.66:8080
31.179.224.42:38263
103.4.65.125:42493
104.238.156.32:8080
77.238.79.111:8080
203.202.254.206:51269
163.172.29.74:5836
209.190.32.28:3128
150.109.32.166:80
51.158.123.35:8811
13.229.131.242:3128
5.62.157.86:8085
95.67.65.18:53281
36.89.194.113:38622
169.57.157.146:8123
163.172.231.64:5836
40.121.198.48:80
213.174.10.58:44051
91.142.174.224:34009
1.20.100.227:57396
5.62.159.139:8085
213.98.67.40:41005
12.139.101.96:80
213.58.202.70:54214
212.129.63.157:5836
103.235.199.46:31611
212.83.151.131:5836
69.162.92.149:5836
103.216.82.209:54806
79.137.123.252:3139
130.88.91.74:3128
185.158.127.9:53281
68.183.53.126:3128
172.254.124.231:3128
62.210.138.179:5836
51.158.20.64:5836
177.99.206.82:8080
69.162.92.149:5836
1.20.103.196:42792
195.9.61.22:56099
65.184.156.234:33247
104.154.143.77:3128
34.87.96.183:80
107.150.22.210:8080
169.255.126.211:60129
38.126.254.114:45517
125.26.99.223:32703
1.20.100.227:57396
115.124.73.130:43520
54.82.228.139:80
141.105.89.85:8080
51.158.172.165:8811
163.172.201.210:92
203.188.246.67:8080
103.206.246.214:8080
103.119.145.138:8080
119.82.252.29:34661
186.159.3.41:30334
180.178.102.174:55443
200.89.159.153:8080
41.190.147.158:37010
94.141.244.39:34166
47.91.217.100:80
103.69.220.2:45155
163.172.198.72:5836
185.128.37.4:8080
207.148.16.164:8080
167.172.217.218:8080
113.53.83.212:44664
63.249.67.70:53281
197.234.35.82:53281
191.96.42.80:3128
103.250.157.39:6666
103.253.113.54:8080
185.130.105.119:65022
36.89.194.113:38622
205.185.127.8:8080
185.34.22.225:37879
212.109.196.159:8118
65.184.156.234:33247
51.158.98.121:8811
38.90.33.62:80
69.162.92.149:5836
163.172.224.60:5836
203.173.92.254:53080
213.174.10.58:44051
80.65.28.57:30962
146.148.59.22:80
185.128.37.4:8080
41.217.217.60:58734
91.187.113.205:53281
163.172.201.210:92
54.175.186.38:8118
124.156.98.172:80
36.89.129.15:35270
89.36.195.238:39131
1.10.186.35:37235
190.103.178.14:8080
134.35.171.153:8080
45.67.219.194:8080
167.71.120.182:3128
177.154.224.206:44488
5.62.157.181:8085
95.139.194.110:80
175.212.226.58:80
51.15.157.176:5836
103.250.157.39:6666
198.148.105.198:8080
104.244.75.26:8080
208.98.185.89:53630
51.158.172.165:8811
175.212.226.58:80
197.210.187.46:45753
200.52.141.162:53281
125.26.99.223:32703
104.211.29.96:80
69.162.92.149:5836
128.0.179.234:41258
51.158.180.179:8811
37.120.192.154:8080
213.174.10.58:44051
91.187.113.205:53281
170.81.35.26:36681
5.62.159.139:8085
203.19.92.3:80
201.204.46.10:39371
155.138.159.197:8080
103.119.145.138:8080
213.58.202.70:54214
71.183.100.76:42413
103.216.82.209:54806
65.182.5.212:8080
198.98.50.164:8080
185.25.136.160:8080
50.233.42.98:51696
197.210.187.46:45753
212.129.63.157:5836
185.34.22.225:37879
200.52.141.162:53281
12.139.101.102:80
185.25.136.160:8080
200.89.159.153:8080
217.151.232.221:53281
78.141.198.86:30924
91.142.174.224:34009
91.205.131.150:40694
2.57.76.230:8085
51.158.180.179:8811
54.175.186.38:8118
119.82.253.123:55281
163.172.202.234:5836
175.139.179.65:39138
1.20.102.228:61606
163.172.180.18:8811
36.89.129.15:35270
194.5.206.231:8080
64.227.126.28:3128
5.62.157.195:8085
103.59.190.2:61209
206.81.1.249:3128
157.245.211.150:3128
182.52.51.47:41146
109.195.23.223:34031
50.115.173.33:5836
5.252.161.48:8080
178.62.110.236:8080
189.127.106.16:53897
36.89.194.113:38622
212.129.34.74:5836
119.82.252.29:34661
159.138.3.119:443
118.69.140.108:53281
123.200.26.22:48280
205.201.49.132:53281
5.62.159.203:8085
138.68.240.218:8080
5.62.159.55:8085
5.62.157.179:8085
201.204.46.10:39371
179.124.242.34:41886
36.89.194.113:38622
104.245.69.26:3128
91.142.174.224:34009
213.98.67.40:41005
81.163.38.173:41258
155.138.159.121:8080
159.138.3.119:443
103.216.82.153:6666
91.187.113.205:53281
65.182.5.212:8080
103.206.246.214:8080
216.158.89.114:8088
50.115.173.33:5836
163.172.124.72:5836
181.40.122.102:8080
1.10.186.35:37235
45.63.19.95:8080
163.172.202.234:5836
207.148.16.164:8080
5.62.157.124:8085
47.91.105.34:80
103.57.70.248:52000
212.129.63.157:5836
5.56.133.225:34567
36.89.182.153:36152
190.103.178.14:8080
193.188.254.67:53281
185.189.102.153:44981
5.62.159.112:8085
5.62.157.164:8085
197.234.35.82:53281
54.82.228.139:80
149.248.35.72:8080
149.248.32.148:8080
91.187.113.205:53281
175.139.179.65:39138
150.129.171.123:6666
159.224.182.206:33067
34.87.88.180:80
1.20.102.228:61606
81.163.38.173:41258
95.178.216.69:8080
80.187.140.26:8080
163.172.224.60:5836
110.76.128.53:42670
81.95.131.10:44292
36.37.177.186:8080
103.250.157.39:6666
91.142.174.224:34009
68.183.53.126:3128
82.135.148.201:8081
50.201.51.216:8080
50.233.228.147:8080
36.67.66.202:41259
113.53.91.12:53281
115.124.73.130:43520
163.172.180.18:8811
201.204.46.10:39371
36.89.194.113:38622
134.122.122.60:8080
103.31.227.27:8080
167.172.217.218:8080
131.148.11.146:80
163.172.202.103:5836
212.109.196.159:8118
159.65.171.69:80
103.236.114.38:49638
163.172.180.18:8811
68.183.48.96:8080
179.124.242.34:41886
79.101.98.2:53281
91.187.113.205:53281
205.185.127.8:8080
206.189.82.151:8080
5.62.159.134:8085
167.71.120.182:3128
69.162.84.221:5836
89.23.198.13:8080
94.244.28.246:31280
193.188.254.67:53281
71.168.222.78:3128
206.81.1.249:3128
163.172.98.148:5836
113.53.83.212:44664
137.220.51.128:8080
182.52.90.43:33326
5.62.157.34:8085
69.162.111.165:5836
173.82.177.214:5836
149.248.35.72:8080
37.120.192.154:8080
115.124.73.130:43520
163.172.189.32:8811
103.253.113.54:8080
103.58.74.2:8080
197.210.217.66:56625
1.20.103.196:42792
167.172.136.107:80
82.135.148.201:8081
205.185.127.8:8080
47.52.231.140:8080
104.244.75.218:8080
185.158.127.9:53281
31.192.153.50:53281
206.189.30.218:3128
1.20.101.62:39928
50.241.148.97:8080
45.236.128.29:3128
169.45.160.130:1080
47.244.126.160:8081
77.238.79.111:8080
78.46.81.7:1080
103.111.20.139:44462
134.209.29.120:3128
47.244.126.160:8081
216.158.89.114:8088
103.31.227.27:8080
125.26.99.185:56119
23.31.218.226:80
51.158.107.202:8811
103.227.147.142:37581
115.124.73.130:43520
103.57.70.248:52000
78.130.145.167:39825
15.165.85.203:3128
117.252.66.40:8080
148.77.34.194:48521
63.134.172.12:80
1.10.186.35:37235
45.235.87.94:53781
163.172.124.72:5836
162.248.247.153:32592
96.9.69.164:53281
45.165.131.12:8080
5.62.159.186:8085
149.248.32.148:8080
2.57.76.126:8085
82.135.148.201:8081
69.162.111.163:5836
157.230.255.230:8118
178.47.139.151:58792
5.62.157.91:8085
1.20.101.62:39928
41.190.147.158:37010
103.106.28.78:30909
138.94.37.29:8080
103.4.65.125:42493
5.23.102.194:52803
213.120.213.242:8081
47.244.126.160:8081
103.250.157.39:6666
64.227.126.28:3128
134.35.171.153:8080
167.172.30.250:3128
103.59.190.2:61209
157.245.62.184:3000
175.100.16.20:37725
45.236.128.29:3128
49.12.35.192:8080
91.142.174.224:34009
161.199.130.1:8080
1.20.100.227:57396
78.130.145.167:39825
31.192.153.50:53281
167.71.177.222:8080
203.173.92.254:53080
82.102.10.250:3128
82.102.10.250:3128
159.203.82.173:3128
27.50.18.42:23500
206.81.1.47:8080
109.75.140.158:59916
118.69.50.154:80
78.108.66.26:3128
5.62.157.161:8085
2.57.76.211:8085
88.79.82.103:8080
38.147.164.241:80
185.128.37.4:8080
18.132.18.81:80
104.255.168.203:5836
198.98.50.164:8080
163.172.28.22:80
104.248.6.88:8080
163.172.231.3:5836
104.248.160.192:80
94.153.169.22:59177
31.179.224.42:38263
92.51.149.81:3128
107.152.32.206:8080
87.255.27.163:3128
104.154.143.77:3128
157.245.211.150:3128
196.1.184.6:52963
163.172.231.64:5836
217.112.83.235:3128
2.57.77.232:8085
69.162.111.163:5836
175.139.179.65:39138
5.62.159.55:8085
91.211.172.104:55218
207.157.220.8:8080
91.211.172.104:55218
78.108.66.26:3128
43.248.24.158:51166
104.244.75.26:8080
162.252.57.246:5836
202.131.234.142:35563
104.244.75.26:8080
95.67.65.18:53281
187.86.137.141:58918
104.154.143.77:3128
216.198.188.26:51068
104.255.168.203:5836
206.81.1.249:3128
81.252.38.12:8080
47.52.231.140:8080
104.255.168.204:5836
47.244.126.160:8081
104.238.156.32:8080
95.84.128.25:33765
202.131.234.142:35563
12.139.101.98:80
96.9.69.164:53281
128.0.179.234:41258
103.31.227.27:8080
158.46.127.222:52574
96.9.77.71:8080
14.162.145.116:30762
199.188.92.69:8000
51.158.123.250:8811
187.86.137.141:58918
91.205.131.150:40694
163.172.28.22:80
125.26.99.223:32703
171.224.190.165:8080
115.124.73.130:43520
216.158.89.114:8088
163.172.28.22:80
104.45.188.43:3128
79.101.98.2:53281
200.52.141.162:53281
5.62.159.20:8085
138.68.240.218:8080
134.209.29.120:3128
149.129.240.89:8080
69.162.92.149:5836
41.190.147.158:37010
159.138.3.119:443
180.178.102.174:55443
192.117.146.110:80
104.248.6.88:8080
125.26.99.185:56119
197.210.217.66:56625
197.210.217.66:56625
71.138.16.17:30421
103.79.35.200:39049
104.255.168.205:5836
198.148.105.198:8080
213.98.67.40:41005
5.62.159.100:8085
198.98.51.240:8080
182.52.90.43:33326
163.172.180.18:8811
36.89.76.77:8080
173.82.55.155:5836
150.129.171.123:6666
104.154.143.77:3128
159.138.3.119:443
213.58.202.70:54214
51.158.123.250:8811
185.134.23.197:80
103.102.139.186:39184
172.254.124.231:3128
95.67.65.18:53281
115.124.73.130:43520
23.137.128.122:41549
45.32.185.195:80
169.57.157.146:8123
113.53.83.212:44664
170.81.35.26:36681
163.172.198.72:5836
150.129.171.123:6666
5.62.157.181:8085
197.234.35.82:53281
197.210.187.46:45753
51.158.180.150:8811
169.57.157.146:8123
185.134.23.196:80
69.162.92.147:5836
149.28.10.116:8080
103.206.246.214:8080
163.172.29.74:5836
103.59.190.2:61209
81.163.38.173:41258
202.79.16.129:60122
62.118.131.240:3128
163.172.226.89:5836
169.45.160.130:1080
95.84.128.25:33765
144.202.87.27:8080
175.139.179.65:39138
199.188.92.99:8000
216.158.89.114:8088
134.209.29.120:3128
159.89.189.98:3128
175.100.16.20:37725
54.82.228.139:80
36.37.177.186:8080
193.188.254.67:53281
175.106.17.62:45864
104.236.54.196:8080
213.174.10.58:44051
134.122.122.60:8080
38.90.33.62:80
103.57.70.248:52000
157.245.62.184:3000
69.162.92.148:5836
45.63.51.89:81
163.172.11.229:5836
93.87.17.1:53281
185.134.23.198:80
125.26.6.61:60121
91.187.113.205:53281
212.24.148.234:60759
202.179.7.158:23500
69.162.84.219:5836
89.23.198.13:8080
45.63.97.27:31801
2.57.77.177:8085
104.255.168.202:5836
213.98.67.40:41005
192.200.200.87:3128
185.44.231.2:34244
202.131.234.142:35563
202.179.7.158:23500
103.240.161.109:6666
163.172.29.74:5836
179.124.242.34:41886
91.187.113.205:53281
125.26.99.185:56119
182.53.206.44:45900
31.192.153.50:53281
36.89.189.77:51922
213.98.67.40:41005
38.126.254.114:45517
202.142.153.181:32296
12.139.101.97:80
34.87.96.183:80
103.227.147.142:37581
163.172.114.81:5836
125.25.165.97:39021
51.158.180.179:8811
49.12.35.192:8080
68.15.31.118:48678
149.248.35.72:8080
78.130.145.167:39825
51.91.254.196:31282
163.172.98.25:80
54.175.186.38:8118
104.211.29.96:80
103.31.227.27:8080
109.172.57.250:23500
160.119.126.54:8080
212.129.51.34:5836
1.20.100.227:57396
181.48.47.26:53281
159.65.171.69:80
79.101.98.2:53281
196.1.184.6:52963
161.35.46.103:80
45.235.87.94:53781
5.62.159.28:8085
185.128.37.4:8080
5.62.157.179:8085
195.225.48.97:58302
159.203.82.173:3128
82.135.148.201:8081
93.87.17.1:53281
166.249.185.133:41942
163.172.98.25:80
193.188.254.67:53281
95.67.65.18:53281
206.189.82.151:8080
159.203.82.173:3128
171.224.190.165:8080
199.188.92.99:8000
77.238.79.111:8080
185.134.23.198:80
5.56.133.225:34567
95.67.65.18:53281
45.67.219.194:8080
125.26.99.223:32703
86.123.166.109:8080
198.211.109.14:80
134.209.38.177:3128
212.126.107.2:31475
104.244.75.26:8080
45.67.219.194:8080
103.58.74.2:8080
1.20.100.227:57396
1.20.103.196:42792
169.57.157.146:8123
77.238.79.111:8080
198.50.152.64:23500
125.26.6.61:60121
69.162.82.155:5836
185.134.23.196:80
89.251.70.61:38408
5.62.157.39:8085
104.45.188.43:3128
163.172.189.32:8811
103.216.82.153:6666
88.79.82.103:8080
41.190.147.158:37010
91.205.131.150:40694
128.0.179.234:41258
129.205.173.242:32457
31.192.153.50:53281
163.172.180.18:8811
185.134.23.197:80
118.69.219.185:55184
159.89.189.98:3128
148.77.34.194:48521
118.172.201.80:46677
198.98.51.240:8080
5.62.157.184:8085
139.255.61.130:36511
155.0.181.254:31359
91.187.113.205:53281
198.204.253.114:3128
96.9.77.71:8080
5.62.157.52:8085
163.172.229.174:3128
148.77.34.195:48521
104.238.156.32:8080
161.35.46.103:80
163.172.224.53:5836
107.152.32.206:8080
78.46.40.156:8118
91.211.172.104:55218
80.65.28.57:30962
181.48.47.26:53281
5.62.159.222:8085
162.248.247.153:32592
63.134.172.12:80
43.248.24.158:51166
5.62.159.20:8085
128.0.179.234:41258
161.35.49.101:8080
5.62.157.86:8085
46.10.199.90:34607
63.220.1.43:80
151.252.108.65:38069
175.139.179.65:39138
51.158.123.35:8811
5.23.102.194:52803
31.129.253.30:40223
51.15.157.176:5836
163.172.98.25:80
134.209.29.120:3128
95.84.128.25:33765
212.83.151.131:5836
95.139.194.110:80
185.130.105.119:65022
50.236.148.246:39970
181.118.167.104:80
173.82.74.60:5836
41.190.147.158:37010
94.141.244.39:34166
202.169.38.198:30612
51.91.254.196:31282
173.82.133.141:5836
209.97.150.167:8080
81.95.131.10:44292
180.211.186.90:33723
1.20.100.227:57396
173.82.17.190:5836
163.172.224.79:5836
134.209.29.120:3128
155.0.181.254:31359
5.62.157.179:8085
54.82.228.139:80
163.172.11.229:5836
104.236.47.73:8080
77.238.79.111:8080
51.158.186.242:8811
212.24.148.234:60759
23.137.128.122:41549
137.220.51.128:8080
5.252.177.213:3128
104.245.228.65:8080
163.172.60.116:8118
109.195.23.223:34031
163.172.224.93:5836
5.62.159.240:8085
163.172.224.94:5836
36.89.182.153:36152
80.65.28.57:30962
41.217.217.60:58734
163.172.224.93:5836
182.53.206.44:45900
23.137.128.122:41549
63.220.1.43:80
193.213.89.72:51024
45.63.51.89:81
105.27.238.160:80
178.134.208.126:50297
5.62.159.203:8085
169.45.160.130:1080
198.98.50.164:8080
5.59.141.152:61981
169.255.126.211:60129
134.90.229.118:52972
50.197.38.230:60724
173.82.133.141:5836
86.123.166.109:8080
163.172.146.119:8811
213.98.67.40:41005
51.158.20.64:5836
104.236.47.73:8080
193.213.89.72:51024
163.172.224.53:5836
180.178.102.174:55443
5.62.157.164:8085
159.138.20.247:80
103.227.147.142:37581
43.248.24.158:51166
82.200.233.4:3128
117.197.99.118:80
5.62.157.52:8085
91.142.174.224:34009
1.20.100.227:57396
71.183.100.76:42413
5.59.141.152:61981
69.162.107.77:5836
178.33.251.230:3129
159.192.97.181:23500
177.99.206.82:8080
89.251.70.61:38408
71.168.222.78:3128
198.204.253.114:3128
195.69.221.198:33972
103.206.246.214:8080
163.172.224.94:5836
